{
  "endpointAddress" : "http://maps.googleapis.com/maps/api/directions/xml",
  "method" : "GET",
  "headers" : { },
  "redirectEnabled" : true,
  "requestBody" : "",
  "queryParams" : {
    "origin" : "Toronto",
    "destination" : "Montreal",
    "sensor" : "false"
  },
  "authDetails" : null,
  "contentType" : "application/json",
  "multiParamInfoList" : null,
  "sampleHttpResponseDetails" : {
    "statusCode" : 200,
    "headers" : {
      "Content-Type" : [ "application/xml; charset=UTF-8" ],
      "Date" : [ "Thu, 21 Dec 2017 23:40:31 GMT" ],
      "Expires" : [ "Fri, 22 Dec 2017 23:40:31 GMT" ],
      "Cache-Control" : [ "public, max-age=86400" ],
      "Vary" : [ "Accept-Language" ],
      "Server" : [ "mafe" ],
      "X-XSS-Protection" : [ "1; mode=block" ],
      "X-Frame-Options" : [ "SAMEORIGIN" ]
    },
    "responseBody" : "<?xml version=\"1.0\" encoding=\"UTF-8\"?>\n<DirectionsResponse>\n <status>OK</status>\n <route>\n  <summary>ON-401 E</summary>\n  <leg>\n   <step>\n    <travel_mode>DRIVING</travel_mode>\n    <start_location>\n     <lat>43.6533096</lat>\n     <lng>-79.3827656</lng>\n    </start_location>\n    <end_location>\n     <lat>43.6557259</lat>\n     <lng>-79.3837337</lng>\n    </end_location>\n    <polyline>\n     <points>e`miGhmocNs@Rm@N]JmA^KBcAZSFWHqA`@a@Le@L</points>\n    </polyline>\n    <duration>\n     <value>72</value>\n     <text>1 min</text>\n    </duration>\n    <html_instructions>Head &lt;b&gt;north&lt;/b&gt; on &lt;b&gt;Bay St&lt;/b&gt; toward &lt;b&gt;Hagerman St&lt;/b&gt;</html_instructions>\n    <distance>\n     <value>280</value>\n     <text>0.3 km</text>\n    </distance>\n   </step>\n   <step>\n    <travel_mode>DRIVING</travel_mode>\n    <start_location>\n     <lat>43.6557259</lat>\n     <lng>-79.3837337</lng>\n    </start_location>\n    <end_location>\n     <lat>43.6618361</lat>\n     <lng>-79.3545239</lng>\n    </end_location>\n    <polyline>\n     <points>iomiGhsocNIo@c@oDGg@AASaB[_CGi@E_@EWAGKo@?EAE?EAE?C?C?C?C?G?C@G?GBKNeAFc@PkADU@I@E@I?C?C?C?A?C?E?EACAI?EEWKy@WqBYuBWwBg@qDm@{EGa@Gc@M_AKw@CO?EAC?ACIAECGCCCECCIEGEKGMGCCECGEEEIIEECCMSKOIQIOISGSEQCMCGAIAGAEAICS?IAI?KAO?K?Q@G?G?I@Q@G?G?E?GAE?EAEAIa@{Ca@oCc@eDEW[wBYwB]eCCSYsBQsAMeA_@qCa@wCa@qC[_CAIWgBe@gDU_BMcAOiAEWg@kD]aCOeAg@kDUuACQ?ICUUkDUmD</points>\n    </polyline>\n    <duration>\n     <value>520</value>\n     <text>9 mins</text>\n    </duration>\n    <html_instructions>Turn &lt;b&gt;right&lt;/b&gt; onto &lt;b&gt;Dundas St W&lt;/b&gt;</html_instructions>\n    <distance>\n     <value>2492</value>\n     <text>2.5 km</text>\n    </distance>\n    <maneuver>turn-right</maneuver>\n   </step>\n   <step>\n    <travel_mode>DRIVING</travel_mode>\n    <start_location>\n     <lat>43.6618361</lat>\n     <lng>-79.3545239</lng>\n    </start_location>\n    <end_location>\n     <lat>43.6636638</lat>\n     <lng>-79.3555052</lng>\n    </end_location>\n    <polyline>\n     <points>ouniGv|icNa@NOH[L}CvAKDOFOFODSD]JE@C@A@A@A@?BAH</points>\n    </polyline>\n    <duration>\n     <value>22</value>\n     <text>1 min</text>\n    </duration>\n    <html_instructions>Turn &lt;b&gt;left&lt;/b&gt; onto the &lt;b&gt;Don Valley Parkway&lt;/b&gt; ramp</html_instructions>\n    <distance>\n     <value>220</value>\n     <text>0.2 km</text>\n    </distance>\n   </step>\n   <step>\n    <travel_mode>DRIVING</travel_mode>\n    <start_location>\n     <lat>43.6636638</lat>\n     <lng>-79.3555052</lng>\n    </start_location>\n    <end_location>\n     <lat>43.7628257</lat>\n     <lng>-79.3366969</lng>\n    </end_location>\n    <polyline>\n     <points>{`oiG|bjcNkI~AsGnA_F`AqCh@cAR{@Ro@PSHa@Nc@P]P[P_@T[RMHUPg@`@gA~@iD|C}BtB{@r@q@b@y@h@A@MF_@RCBq@\\GBSJUHe@Ry@Xg@PgAXc@Js@NoAVeBZ{@Pa@Fc@FiBVcAHcAHy@Fo@BeAFeCLgAFcAD{@B[@c@?]?YCSAYEIAQAm@MQESGc@OcA][M[I}@]q@Yq@Wy@[s@U_AYc@KA?o@Me@I[E[COA]C_@Aa@AW?[?s@As@Aq@Ak@Em@E[EUCWCSEWEIAe@ISEYIQEw@Se@O_@M]Ow@[WMKE[OSK[SUMSMc@YQKQOu@k@g@a@_@[[[WWUUc@g@[_@QSCAsE{FoBcCm@s@wAgBy@cAyAgB}AoB]c@W]Y_@MQm@aA[m@Q_@Se@Sm@Sm@Ok@Mo@Ki@G[Kq@Gm@Gq@Ek@Cm@A_@Aq@?q@@{@DcAHaBFkAJuAJ{AP_CNiCHwAD_ADeA@yA?m@Ac@Am@C_@C[Em@Eg@Gc@Ik@Ms@Kc@I[Om@I[O_@Qi@Sc@Ym@MWS][g@a@m@i@s@[e@c@o@m@y@]i@[e@Yc@Q]EIQ[Yo@Sc@KWIQEMa@oAY_A[kAW_AQq@Og@Ka@a@sASi@Wo@Wm@_@u@MQMUW_@SUw@_AOO[WSOWQWOUOOI_@OQIm@Sa@K[Ik@Kg@IuDe@w@Is@K}@M}@Ke@IOCMAWG]Iq@Qs@Yg@UWOa@Yc@]]Y]_@]_@Y_@]c@q@aA_AyAgBmCg@u@yBeDk@{@KMOSQWW]UYKMa@c@[WWUWSUOOIIGOIIEEC]MYMUIMCEA]K[G[GUCGAWCOAC?[A_@?U@C?Q@]@SBK@SBUDOBMDWFODIBSHWJIBGB[POHSJSNMH_@XYTUTKJUReAdAGDeBdBIHa@`@e@`@OL]Z_Ar@KFEBOLs@d@YPOJOFKFKHo@Zw@^?@sB`Ay@Z_@LWJKBc@NWFMD[Hi@No@NmAT]DUBSBoALkAH_AFuAHE?c@@Y@M@a@?E@sA@u@AuCDiBBcABwABa@@gA@e@@s@BQ@Q@S@Q@_@B]Ba@BcCRcCTgEf@aALWDE?K?mBToC`@a@Fc@FoAPuDf@o@HSBqBVmAL}@LkAF{BFgA@U?QCkGC_AA_A?i@?a@B[?_@@S?]?]@{DPeAJg@F}Cb@m@J_@DoARw@NSD{@L{@LmAPa@Fu@HkAN}@HkAHeADsAFgAD[@{AF{ADc@Bm@@qAFQ@[@aAFaCRE?SBC?q@HoC`@mAPq@Lm@Je@JyAZ_ARe@LcAVUF]Ja@JeD`AaAT_@J_B\\WDK@M?]Fo@Jk@J[F_@FaC^qEp@qDj@{B\\s@J[DOBq@J]D</points>\n    </polyline>\n    <duration>\n     <value>564</value>\n     <text>9 mins</text>\n    </duration>\n    <html_instructions>Merge onto &lt;b&gt;Don Valley Pkwy N&lt;/b&gt;</html_instructions>\n    <distance>\n     <value>12897</value>\n     <text>12.9 km</text>\n    </distance>\n    <maneuver>merge</maneuver>\n   </step>\n   <step>\n    <travel_mode>DRIVING</travel_mode>\n    <start_location>\n     <lat>43.7628257</lat>\n     <lng>-79.3366969</lng>\n    </start_location>\n    <end_location>\n     <lat>43.7680179</lat>\n     <lng>-79.3292728</lng>\n    </end_location>\n    <polyline>\n     <points>ulbjGjmfcNQCU?i@@gA@qA@iA@u@?OAE?OAM?aBE}ACeBE_@AQAMAOCQGMGIECAEEEEGEEEKOEGEGMWGQEOAICIAICKAIAK?IAKAW?]CuDA]A}BESAEAIAo@OwCCu@AOImBIsBKiCGmBAOAGAEOa@</points>\n    </polyline>\n    <duration>\n     <value>50</value>\n     <text>1 min</text>\n    </duration>\n    <html_instructions>Take the &lt;b&gt;ON-401 E&lt;/b&gt; exit</html_instructions>\n    <distance>\n     <value>1070</value>\n     <text>1.1 km</text>\n    </distance>\n    <maneuver>ramp-right</maneuver>\n   </step>\n   <step>\n    <travel_mode>DRIVING</travel_mode>\n    <start_location>\n     <lat>43.7680179</lat>\n     <lng>-79.3292728</lng>\n    </start_location>\n    <end_location>\n     <lat>43.8381168</lat>\n     <lng>-79.0719754</lng>\n    </end_location>\n    <polyline>\n     <points>cmcjG|~dcNCkBE{BCwBAwBA}@AwBAuBAsEAwCAwCAyB?yBAeHAwC?aBAwC?wBAyA?oCA}A?{@C_BA}@Cy@C{@E{@Cy@I{ACa@Iq@ImAIiAKkAKkAMkAUmBc@aDm@aEw@qFy@sFSsAk@}Ds@aFCS}@iGKo@Im@WcB_@kCgEuYe@cDCQa@sCc@sCo@qE_@_CIo@Ii@Gg@oEwZw@sFi@oDSsASuAeAmHSuA]aCiA{HM{@M{@k@yDYsBc@wCe@cDYsBS}AG_@M_AAAOsAWkBQkAUkBg@uDQuA[gCOqA]qCQyA[iCc@{D}@{HYiC]aDqB}QmFqe@[mCsAyLe@cEI]AOOgA_AqIu@{GWwBm@}Ec@oDCUQoAeAwHq@uE{@wFiBcL_AkFy@oEk@uC[aB[_B}@oEWiAe@}Ba@gBa@kB_@cBi@_Ca@_BKe@[oAMe@a@yAW}@Qo@a@oAk@cBa@gAo@eB}@yBq@cBYm@[q@[o@i@kAmAcCqB}D?Aw@{A_@y@_@{@c@eA{@yBeA{Cu@cCw@qCU_As@{CYyAScAIg@Mo@a@kCWqBM{@I{@OsAI_AEk@KoAOkBUqCQ{BUsCSoCU{CUoCUuCUwCSmC_@wEOwBc@kFYyDm@eIoC{]gAwNEu@yAiRiA}N}IsjAEUI_AKqAGy@IiAIoAC_@Eq@A[A_@Cw@CoAAiAA_@?q@@oA?{@@i@@s@BcADgADy@B_@Dw@Dg@Fq@H{@JgAFg@Hq@Hk@Lw@Hg@Jm@Nu@F_@Pu@^cB\\wAxBwIt@}CXiAl@}Bt@{CRy@d@kBXiA\\sAT}@`@cBZsA^_BTgAPcARmAPoALqAJiAHiAJoCB}@BcB?sBC_A?i@KuCOwBSmBMmAWaBKg@Mq@Ow@WgAEMMe@i@iBIY[{@e@mAk@qA[m@c@{@gAsBoAyBaBoCq@eAkDyFiAiBgAgByA_C_BkCsAwBmAsBiAoBaAeBc@w@Ua@uAgCYg@Wg@y@{AaAmBs@wAa@{@e@_AQ]c@_AK_@uHiPuB}DI_@{DiHoCaFgC{EqK}S{BaEoE_IcMqT_BsCOWgHgMyBeD}@wAeDmFkB{Ca@m@uAyBoAqBaAcBw@uA]q@iA}B{@mBk@yAu@qBoCqHkDqJgB_F]_A[_AoAqDkDuJ}HiTqEgMkDuJSk@IUWo@{HoTeSuj@yCoIaCyGgA{CwAuDUk@_@cA_@eAAC?AAA?C@A?G</points>\n    </polyline>\n    <duration>\n     <value>731</value>\n     <text>12 mins</text>\n    </duration>\n    <html_instructions>Merge onto &lt;b&gt;Ontario 401 Express&lt;/b&gt;</html_instructions>\n    <distance>\n     <value>22987</value>\n     <text>23.0 km</text>\n    </distance>\n    <maneuver>merge</maneuver>\n   </step>\n   <step>\n    <travel_mode>DRIVING</travel_mode>\n    <start_location>\n     <lat>43.8381168</lat>\n     <lng>-79.0719754</lng>\n    </start_location>\n    <end_location>\n     <lat>44.7393229</lat>\n     <lng>-75.5006680</lng>\n    </end_location>\n    <polyline>\n     <points>gcqjGzvraNmAgDm@}AY{@M]k@}Aa@iAe@uAc@mAm@gBe@qAe@qAe@sAc@kAWu@Wu@i@wAAEe@qAc@oAqGmQ_Osa@a@kAQk@Wy@U}@Sq@Oq@UoAMk@Mu@WqBa@qDMeAq@{F{Ds\\G_@qCsUi@aEUsBWsBU_Cm@oFq@wF[uCWwBIq@[kCy@_H}@gHOkAm@mEyAoKUaBi@yCwBeN_@cCs@kEg@{CQkAkBgLyAiJw@_FcA{GuBkOEWCYESCSCSCS_@uC_@uC}AoLAQiAeKe@sDwAkKuB{NuAcK}AwJ{DaWkAsHo@{DcBsKi@_DY}AKm@Q}@mFcXcCsMmCgPeBeNm@}Ee@iEe@gF[gDQmBSmCScCWeDScCa@oFoAuO]{EyAeSQ{COiCIqBImEAwC?sC@aEF_Dr@}^BoAHeDFkDJqFNoHFwCBiBF_CHqDBcAL}ENuHFeDJaD@o@@oADwAD}ADmAFwB@y@LcFVwKFsD@WJqFP}IDyB@wA?iA?}AA_BA}AEcBEuAGoBKsBKwAK}AM}AQaBUwBWoB[}B]aCWkB[sBQgAGe@]aC_@iC]eCgAwH{Eu\\c@}C}B_P}Lk{@_BcLeCeQmByMqBoMCQe@mCy@sEUkAs@sDcA}EuEwTUgAo@aDEUwA}GgBiIi@qCWgAS_AUuAQcA[}BIc@M_AuDwWc@}CAEIm@aAsG}B_PWqBCMMw@OgAgA_IKm@qAgJEYyBcPsDcWc@gDIk@AGMu@kAmIwGce@g@kDYsBKs@OiAYqBMaACMMgAMo@U}Ba@sE[oEOyCUuFMmHCyC?{BFwI?GB_CDoBHyBHmBJcBJaBHiAL_BNiBRwBVqBR_BVmBJs@L}@f@}Cl@eDd@yBJi@Ja@Z{Ah@wBr@qCnBsG`AoC\\cAZy@\\{@Xq@l@{ATg@z@mBv@}ALY`@u@p@qApA{BjAmB`BmCbAcBfCcEbBsCh@_Av@sAvAyC`B_E`@kAVs@\\iAh@iB~@uDf@}BVyAb@cC`@sCJ_A^yDT_DPwDB}@D{ABwA@qA?{@?iAA_AA}@CwACmAE}@Cm@GuAIkAMuBiLegBw@qLwAuTWkEWyD}AwVKaBk@yIy@aMw@mLuAqTc@oGO{BgE_p@uDel@_@gGu@kL[qEUkDYyDQuCYcEa@sG_@uF]eFOiCW_ESkDKyAe@kHCu@mBsXI}@?MI_ASyBMeAMkAIm@_@gCSsA[kB[{Aa@qBaA}D]oAe@aBUs@a@qAe@sAu@qBaAcCeCoGoKwXwCsHc@kAeBsEi@qAkB{EeAsCcByEk@gBm@mBQm@{AeF_AcD_B}FYiAoAiFa@cBg@yBQy@EQ{@kE[cBQ}@i@_Ds@gEo@sDQcAc@yCOiAk@sEa@kDIq@Gs@Ec@a@{DO{AQ{B_@mEUoCQ{BMkBKgBSqDOeDMeD{@uYc@gNi@mQAq@}Ami@u@qUe@sPoAab@CwBKqDEqBEwBIeDKo@AEIuBMsEOcFSsGe@cO]yHE}@E{@]eGa@kGWuD{@uJYoCWcCe@eEYaCkBiOqAiKmCqTg@}DIq@mBiOi@cEYcCwAyLiBcOkCaTeBuNkBkOy@qGKy@yAgLYaCQqAaBeNiB{NKy@kB{O_CqRiC{SqCeUQyAs@}FqAoKcAiIwAoL{@_HcBgNo@iFqAeKmAcKaAyHwBgQ_A}HcBgNq@qFcAgIi@oEs@sFcAkIsBwPeAsIaB{M_Ee\\w@sGy@uGY_Cg@mDq@cFmAwIc@eDoEc\\mBiNmA}IiAoIgA_Iu@oFm@qEwByOsAsJS}AwAmKsF}`@E[E[mEw[iD{VaFq^cByL_@kCgAoIQmAsDiXoAeJgE_[oA_JeAuHaAkHsAuJ}@yG{@_Gw@iGeFa`@oBmNgCeR}AgLyLa}@SyAkCuRKq@cF{^eA_IqAkJcDkVeBeMoCaSuKcx@_CkQkAiHIg@WqBi@uD_AeHi@{DkB_NgCgRqDgXo@kEc@gD]gCi@{D_A{GqBaO}Ly}@_@iCyG{f@kAwIgQaqA_@wCe@mDa@_DM{@MkAYmCSuBU{BQ{BQyBIsAIeACc@?ICYM}BSqEYwG}Aq]_A}S_@yHWkFQwDCk@Ag@KqCScHO}FKsEEwAGyAK}CU_Fa@gJOkDWaGW_FUcEQkCQmCk@gIG{@Ew@C]G{AIiBWmFCm@AKGgAQgEE}@E}@SeF[iHc@kKi@cMc@qK_@{IO}CK{BIwAGeAMyAM}AIo@Gu@a@eDWgB]uB_A{FaAeGkAiHaBoK[yB]yB]qBiBcL}L_v@uEwY}@uFcDkSiIch@eAaHiAiHQqASqAcBoKuAeJgBeLyAsJ_@gCKy@K}@Iu@KcAEm@GaAEs@CeAE_B?g@?m@?{@@}@@{@@]@]Bu@FeAFy@HcAH}@Jy@L{@T{AFYJi@ZsAb@yBhAcFdAsEjBmIr@uCbBuHfA}E`@qB\\kBVyAZwBR_BNqAJaAP_BDo@Da@LaBHuADy@Ds@D{@DiADeABaAB}A@uA@gB?cA?mACsBC}ACcACmACk@MsCGmAKyAMyASiBgEsd@uB}TQmBOcBUiC[wC]}CU{Aa@sCSwAMq@_@yBo@wD_@qBSaAkB_Js@wCo@uCg@uBKc@Kc@kAaFSaAk@_C_AaEI_@[mAi@eC]sAOw@Qw@y@sD{BsJuAiFcAeDaA{CeBcFo@eBs@}Au@qAc@s@IM}AsCwAgC}AqCy@}A_@s@OYc@}@]{@k@wAi@}Ae@eBYiAUeAMs@QaAOiAOgAKeAIeAG_AEw@Ci@CaAC{@CyA?aCEkMGaP?yBCcF?eAC{AGgCGyAQ}BKaAMcAOmAg@gDYmBk@gDOo@Ke@c@cB[eA_@eAQk@o@}AkBgEgAcCsA_Dw@cBw@iBe@eAeAcC{AeDe@gAcA{Bq@{As@aBcAeC}@kCs@{By@qCq@mCe@qBaAqEc@oB_AgEm@sCcAqEq@aDoAuFS}@u@yD_B_I_AeFUsAk@iDKs@M{@U_BQwAYcCOuAOaBOoBQ_CQwCMwCKsBIqDCoAAg@A{BA{D?cABeDDuCH_DP}FJyCf@uNPcFLkDj@eOf@{Lh@oMTiFb@_LLcDVaGT}FH{AHoBJcBNuBNyANsAXyB\\sBXwA^aBTaATw@f@eBt@wBh@wA\\aAhEqLJYb@kA`@kAj@_Bf@qAVs@Rq@`@oARu@\\qANo@XsAPy@N{@Ly@ZqBPyAH{@JiAJqAJoADs@DaADuAB{@?a@BuA?}@?y@A{AAy@C_AEqAE_AIwAG{@KsAMwAG{@I{@Gy@MwAI{@KuAMwAWoDMyAMwAMwAOsB[qDsCw]o@aIcA}Lc@eFa@kF_AoLu@cJo@_IcA{LWaDWuC_@oDUcBy@yGaCgReAqIc@gD}@cHsAyK}@cHeBoNG_@WqBQuAo@eFaB}MIo@e@qDiAiJ[kCeAgIk@uE_@uCc@kDSaB[cCc@oDg@yDo@_Fw@uGs@wFq@mF_@{Co@}Eu@mGm@sEGg@g@}D}@gHg@aEc@_EQqBYuDO_CYuEGcAUuDM_COyBE}@KqAKkBOoCAQQkCg@yIm@wJGgAASs@{KUgEaAgPWeEYeFGaAc@eHK_BAOEg@c@oHg@eIk@oJaAsPu@aMcAwPGiAk@qJI}Ao@aKE{@_@{GWgEIqAGqAKcB]yFE_AYoEc@qHYyEa@uGk@kJc@cHYaFGy@s@_MIeA_@{EKoAs@kGOqAUwBQ{AOsAe@cEe@uE]aDg@mESmBSeBYkCSkBUkB]cD_@iDu@aHq@iGa@qDa@yD[sCYcCSmBW}BUuBg@oEc@gE]eDQ{Au@wG[{C]uCo@uFi@{EkEs`@sL{fAY}BWuB[oBm@}C{@aEEOa@_BOq@yBoJw@_DkB{G}@yCcAgDo@yBs@_Co@uBs@{B}@yCgAoDwEwOmHiVw@mCs@{BcAgDMc@w@iCq@yBk@kB]iAOk@k@iB_@mAc@wAg@eB_@mAwAwEiAwD}@yCs@}BUy@w@iC_A}CaA_Dw@iCe@_Bi@eBe@}A[eA]gAa@sA_@sA[cAg@qBQs@k@eC_@cBWyAYaBO_A]uBQgAWwAa@gCc@mC[gBy@gFy@cFs@gE{@iFk@kD}@}Ew@eD_@qAgAgDe@gAgA_Cq@oAu@oAIMU]iBaCaAeAs@u@y@y@c@c@{D{DuIwIuC}CsAkB{CiFcAmCwAsEg@_CeAqFoKik@oGa]mEaVmC{No@_EYaCg@eFe@wFIiAEmAIcDUyRMuIGqEEaDOmEGiAOeBYkCc@qCc@yBa@_Bc@}Ag@aBo@{A]{@g@aAy@}AiAiBkA_BoCmDwCuDuE}FwCuD_EeFq@{@eDeEaDcEc@m@u@_AeC_Da@g@cBwBsCmDwAgBqCkDkAaB_@m@q@qAmA}C]iAk@uBSu@SgAe@uCWmBO}AOyBQoDM}DWoGMaDk@cOUoFSoFM{C[{I_@oHSsCYiDs@aGqA}IM_AaAmGOaAqCiRsAkJuJeo@iB}K{@_Fw@{DkA}EaEuNw@qCmCgJeRcp@sE}OyA_Fa@wAe@aB]iAsAsEWy@q@iBi@yA}@uBqAqCqAcCoAuBaFaIeHcLeEaH_DcFkB}CaA{A_CcEwAgCoBcEgAqCq@iBi@aBwAsEuBuIg@wCo@{D_AuGkBsMmBwM}BwN_BsIqEyTcJ{c@YyAyDaRmAgG]yAc@cBe@cBc@yAa@qA[_AsByFcCqGg@_BkF_OkCyHoUgq@qBgG{@eDw@mEIa@Gg@Kq@E_@Gs@Iy@IkAE_AEs@I{CEcFAy@SqVEmEOoV?e@?m@?EAg@SgZq@}}@MeDIcBOqBOyAIk@o@iDq@oDg@cBkA_DsLsWsCsGsFwLWg@EI[o@uE_KmB}Do@cBkEeMqAkDAEQg@?AyAgEaDiJ{AoEcDqJc@mA}@aCm@aB]aAe@yAmGyQiA{CaCaHo@iBu@{BmDcK_C{GSm@uBgGyBqGqAqDmAcD_AcCmAcD{A{DuAmDoCgHmBeFiB{E_BiEqCmH{FgOqCiHm@}AeCyGyB{F{CeI{FgO_BcEuAqD}Ly[eIcTsDqJsAqDeFwMwByF_BgEk@{AiCyGqFsNy@yB{@_Cg@uAYaAg@aBU{@g@iBm@eCS_Ao@}CUoA]uBe@mCc@kC{@_Fs@gE_AyFwAuI]qBk@iDk@gDQeAw@sEWuA]sBg@wCg@_Da@aC[kBWaBe@mCm@oDc@aCc@kCYcBg@sCUyA]sB[mBUsA]sBe@iCu@qEc@mCy@yEk@gDk@kDk@eDe@mCuBgMc@iCe@qCq@cE}@gFeAqGs@eEk@eD{B}M{@iFgAoGm@qDoD_Tc@oCyAqIs@gEa@kC{@mFi@iDIk@EYmAmIyA}JoCcReDaUkA_I}AwKqA{IkA}HaBaLu@gF{@aGeAcH{CgSw@eFc@yC}AcKi@oDwAgJw@kFc@uCwAoJu@aF[mBuAmI}AmJgAyGeBeKy@eFgCwOWuA[oBc@mC]qB_A{FG]My@aA}F]sB_A}FUuAk@iDq@gEKg@QeAWsAMu@Ow@Oy@Mu@WuAe@kC]qBOw@Ow@]qB}@aF}CoQc@eCoAqHoAwHi@eDE]Kk@mCkPoAqHiAaHeCiOoCoPmAoHi@{C]sBa@iBEWg@{BaCcK_AsDi@oBg@_BuAoE_BcF]gAa@sAe@{AOg@}A{EeCeIUw@Yy@eF_PyD}LmCsIiBaGUu@W{@o@aCc@aBi@yBU_A_AgEYyAc@_Ca@wBy@uEYcBa@qCk@{D{@yF]}BeAyGoBsMcCkPyAuJq@yEmCsQaBqKqAwIc@wCkAwHgBsL{@yFiDmUcCmP_CsOaAuGqAyImBoM_BsKcA}G]wBq@{EiBuLaBwK{G}c@}AoKEQy@eGu@aFaAsGaA{G_AqGU_BMkAIq@MyAKiAM_BOcCGsAImBEwAAkAMaF?eGBcBF_CH}B@i@Bk@ZgFToCp@{Fb@_Dn@uDX{Av@sDrBgJxBgKhDyOZ{An@yDh@wD^aDP}AXaDRaDRaEHcEBeC@cCCaDAcAA_AEaBMgDK{BIgB]kEqBuXwAwRkAgPq@eJ_@cF]sE}Bk[IaA{K}{Ag@yHWeDWeD{AeSaCc\\k@aIk@cI_BgTkBcWuCia@q@gJ}@kL{H{fAGy@K_BM}AO{BcQacCqA}PCWkDgh@{AcSyLudBuFmv@aAeMyAcROkCyAqTsHkfA_MgfBqGmz@qAoQiAmPcBmUEg@cBwUoCk_@uCob@gEen@cPa{BmF{s@iAsNw@aKS{CYsDSqCWkDM_BQsCYmDYwDWiDk@kIYsD[kEO{A]qCIw@My@My@SsA]mBQ{@YuAa@kB[qAo@eCaA{De@mBGU{@gDe@kBo@eCg@mBe@kBe@kB[qASw@e@kBoCuKo@cC[qAUw@c@iBcA_Eo@eC[qA_BmGaC}IwAoF{@aDeA}Dq@cC[qAi@mBy@_DQu@]qAuAqFeA_Ey@aD_@{AqDoNI_@EOy@eDmAaF]uAQu@WqA_@qBSuAYsBOwAIy@G{@Gy@Eo@G_AGuAEgACyACyA?{A@yA@yAD{AFwADy@F}@PwBJwAH{@LyAHw@H_AFy@LwAHy@F{@NwAF{@LwAF{@B_@Fw@H{AFy@FyAD{@@_@Bw@FuDDiEA[AeEEsBE{AIcCMgCQuCOmBO{AQ_BOwAS}AW_B[qBq@mDiAsFe@{BgAoFoBoJ_AuEeA{E{DiRuHg_@Y{ASeAO}@YoB]eCQaBMkA]uDOuBO_CIoBI{BGwDCkCEmFWi[OeOKaOGgGK_NAgBE{DEwDEcCCsAG}BEwAGcAMiCQgDQgDOsCk@kKi@wK]uGcAwRk@wKMyBMkCc@gI]aH]qG]iHg@uJCe@Cc@OuCQ_EQcEMsEMoFMiHKsHQwJOiKSqLOiLMeJOsKIeHM_KOuKI}GQqKK{IMuIOqJIuEQ{KKgIIwFSeOKcIIeFI{FIgFIkFK_FMkHSmNYySOiK_@{WQcMKcGEmDMmIMmHYkOOaIOmICqBGsD?KEsC?KE{DIeFU{NIoGQuL?KGuEGqDGuFQqUImJEwEEsEImGEyBm@}b@?EGiDKoHEuCIsEWcMIoE[eNImEKuEOmHEsCGuBQoI]}Qa@sQSoJOqFYeLMgGE_B[}NWcM_@ySm@{ZKuFEeBCcB_@kR?YWkMCiAm@u^E{BKqCKuC[gHYmH_@cJ[kHe@aLWmGSoEQoE]iIQqEYoHMoDCwA?}@EoEAsEAsCCuEAwBA{A?wBAuC?uDAoE?oGAuFAkGCsECqFCoGAsDCqFCmHEkHEiICoHEeK?WCoHCyEC{CI_DMkEQkFUcGOaFQuE[gJUeGOoEIiCm@gQm@oQsAy_@{@cWM_HGgLG{U?}SCoc@Qoz@A}FEqOAwGC}GAcFAcFAaFAmFA}F?sAAkAGqBIsBQuBKkAMkAYoBIe@SgA}@qDWcAy@gCw@cCe@iBYiA_@mBYqBOkAW{CMsBGsBCkAAoA@mA@kA@{@Dw@JqBDg@NiBFi@^uCZaBVqA^{A|@_DRi@Ne@N_@p@{AlIiQrE}J^u@Ta@pBmEP_@jAcDZcARq@lAqFnAoFtBcJLg@bE{Qp@sCZuAf@uB~Iga@T_Ah@eCt@yCf@yBd@wBR_ALy@XgB`@qCR}AT{BPuBV_DJeBDc@HmA?GNqBRwDVmELwBH{AHuA^kH`@iHXuFPqCPyBXqC\\uC|@cGpA{HtC{OjC}NDWzAuIjBkKv@eEz@uE^qB\\sB~@mFd@oCTqARiAh@wC^yBRyALw@D]D_@F_@Hw@H{@J{@Hy@F_AH}@F}@HwADy@D}@D{@B_AB}@D}@b@oN\\gMZqK^mLBgABgAXoIJmCBuBAuBEgBGoBOwBEe@KeAUgBOeAIe@SgAYqA_@}AOk@So@]gAi@{Aa@eAo@yAw@mBsCwGuF}Mw@gB}@yBkAsC}AsDEMsByEeD{HgBeEM[Um@Wo@Us@Us@Oe@g@qBIa@Ou@Ie@_@_CmCuQiAwHGc@_@_CCQ]aC_@kCYqBYmBo@kEi@mD[sBg@kDo@gEg@kD{@iF_@kC_@}Bw@uFUwAUuAe@cDs@{EQkAkA_Ii@qDc@wCe@}C_@gCg@kDQmAc@sCa@qCIe@Im@U{ASqAQiAKy@a@kC]{BmAqI[qB{@uFy@{FoAmISuAUyAMy@My@Ow@Ow@Ou@Ou@Os@Qu@Qs@Qq@Su@Ss@Sq@Uu@Wu@_@mAeA{C}@aCYu@c@mAe@oAWs@Ys@Ws@i@wA]_Ae@kAWs@Wq@Wq@Wq@Wq@c@kA_@aA]}@c@kAc@iAYs@uAqDo@cBo@aB}@_Co@cBEKi@wAy@}B}@}Bc@iAWo@Yo@Yo@[m@[k@]k@]g@o@_A_@e@_@e@a@c@a@c@c@a@c@a@c@]e@_@e@]c@YmAs@mAu@oBgAaAm@mAu@y@g@{@g@y@m@w@m@a@_@e@c@]]UW[]W[]e@a@g@_@k@k@}@m@cAi@gAYk@[s@O_@Sg@Oa@So@w@qBc@kAe@oAsAsD{BkGiB_FgEiL{AsEeAsCIWM_@{CmI}@cC_CkGqAsDyFwOEMgIwTaBuEcCuGmA}CeAqCeAsC_@iAa@mA]kA]oA[oAc@iBc@qBe@cCi@gDa@sCUiBQ_BQiBo@sG{Fwm@eA}KuAsOcBoQiBiRaCyVwAsNc@gEc@sEYeDQsBMqBOwBMsBKwBMqCs@oQ}@uUM}HImF_@wIUaHM_DOsDIgBk@{Me@sJg@gNs@gT[wI]gJg@qLMuCGgB[kG[wHk@{NkAqZk@mNIuBEwBKoEQqMGqDGsDGkEGmFEuDGoCEwBEwAG{AEuAGyAWkFk@wLUkEi@{JQoDg@{Ki@wKa@cIYiFQoDUiEYiFMqCMuBOqDIuBUmFSkEOqDYiGYiGWkFSqDa@aIg@_J_@eHc@_J_AkRk@yKa@eIOoDMqD[aKOkFIuDi@mSk@{SCs@Cs@SeHOoEEwAE{@IuASsCMwAIw@SiBQ}ASsAa@oCc@iCG[_@mBk@eCYqAm@gCm@eCiAwEcBeHw@aDiAuEeBgHiCsKwB{IeBgHeBgHk@gCWuAk@oE_@kCQsAOwA]kDUoCk@aHwAgQmBuUgBwTkAsNg@gGo@eIw@{J_@oE]iEQsBYoDUsCUqCa@gFu@}IiAkNEo@SaCQwBKwAkBeUM}Ae@wFUwC[oDYmDOsBGs@IeAKuAI_AEy@IuAE_AGsAC_ACu@Ac@CsAAe@AwA?y@?{@?{@?mABgB@c@@u@B}@DqAF}ABy@D{@F}@Bg@@OF{@J{APuBPeBHy@Hm@BSL}@F]LaAHe@DWJe@n@gD\\mBToALw@L{@Ly@PyAPqBB_@BYDy@HwB@w@BaA@wB@{A@sCHuODkHDaJFaLDcE?oD?_A?}@CyAAy@C{@Cy@Ey@E_AKuAIcAEe@KeAGc@Io@Ec@QkAUsAUuA_@qBaAgFeJwg@}Miu@cBiJu@_Ee@iC]iBi@iCa@kBq@aDWqAk@eCeAwEu@}C[sAkAqESs@e@iBo@aCe@aBi@oBs@aC{AeF}AcFUu@qBwGsAoEsAmE{AcFqAmE_BkFaG_S}ByHo@uBy@oC_CyHkBkG_BiFuBcHaC{Hs@cCa@uAaJiZ[eAaDqKyBkH}@wCo@wBgAqDeByFqAkE{AaFeAmDs@_C{HsWaDsKiTat@qAqEg@iBi@qBi@_Cc@mBa@kBYsAYqAWsAg@kC]mBO}@i@gDYsBQqAYsB[mCi@_FU{B[kDc@}FMeCOwCKcBIiBKeDG_CEwAGsDCwBCsC?wC?oD@wBBsD@y@DyBFqCFsDTeKr@w]T}Jj@eYDwBDuB?wA?}@?iAAiBAyACsAK{CGwAKwBQeCSeCSwBAKSeBYwBi@{D_@qCg@oD_AyGg@mDs@_Fe@mDy@}Fy@wF]aCe@cDgF{^E]EUE]CUKs@y@cGq@{Eg@mD}@qGsB_OcAeH?Gm@qDg@cDs@gF_@kCc@qC_@oBa@mB_@sAe@cBa@sA_@gA[y@Yw@Yo@Yo@m@mAe@}@iEqH{BuDcCcEcCuEgAiBiAkBiAkBwAaCyAcC{@uAgAkByAeCwAaCuAaCiB{Cy@uAgAiBy@wA{@wAy@wAwAeC[m@e@cAc@{@_@{@c@cAc@iAc@iAa@iA_@kAa@oASs@]mAUy@YmA[qAa@oBi@kC[kBg@kCm@eDKm@Km@Mo@WwA]kB]kBWsAWuAa@iBUaA[gAMc@Og@Us@a@iAq@}Ae@eA[q@g@aA]k@_@m@wBiD{A_C{@oAm@_Am@}@}@uA{@qA{@sA{A_CkBsCiBqC}@sAi@aA{A}BiAgB}AaCyA{Bm@_A}@sAkAiB}@uA{@sAm@_A{@qA}@uAm@}@y@oAq@eA_AoAq@{@s@{@eAgAq@q@u@q@y@o@u@k@q@k@w@i@g@_@w@k@w@o@u@m@c@a@s@o@u@u@u@w@q@s@_@e@cAmAo@y@o@}@m@}@m@}@[i@QW[i@i@aA]o@[m@[m@Yo@Yk@Yo@q@}Aq@eBo@_B_A}Bq@aBgAqCc@iAcBeE_BaEiAuCkAsCUm@o@{AcAcC_AuBw@}AMU[m@i@aAMUMU]i@]k@kAeBw@eAyBqCiDyDwCgDeCsCqAyAuA_BsA}A_AgAc@e@u@u@a@a@QOw@o@w@m@iAs@{@c@UMc@SsAg@k@SQG}@UgB_@}D}@yHgBcH_BOEkDw@eFkAyFqA{D_A{D}@mA[uEgAuLwCsA[y@Si@Mk@O}@WSESGe@Oi@SgBq@e@S}@a@_Ae@e@Uq@_@o@a@[QgAu@eAw@}AkA_EyCmG}EgDgCmCqBoCuBmDmCqCsBgDgC}EqDwCyB{AkAyAiAkA{@{AiAkA}@YUkCoBoFcEoB{AwAgAWS{AkAKI_Au@kCqBaAu@cCmBeCkB_DcCyI{GaAs@_BmAiBuAi@a@aCiBmByAsAeAo@i@MKmBcBsCeCqCeCQQu@o@kBcBiBaBaDuCsCgC{BqByAqAu@q@iAcAa@_@w@q@yAsAkAiAaA_AkCoCuA{AgCsCuBcCaGwGoGiHqGiHkCyCq@u@uA{AeBqBaAgAeAkAiAsAo@q@_AeAwRsTcDyD]]eAkAqAyA{AcBiF_GSUkFeGgCoCkFgFoCsCw@w@wAuAyBkBuAuAwCyCoEsEy@y@gBiBs@u@mAoA_A}@u@w@a@c@kAmAqBqBwAwAo@q@UWOOgAgAyB{BsBuBW[YYUYQUW[MSIM]i@_@q@Yk@Yo@a@gAWu@Su@IYSw@G]GWG[OaAa@cD]sC_@qCo@eFiA}IaA}H]qCYuBqDyYs@sFi@kEUgBKs@uAeLWsBEa@I{@IeAEk@Ew@KgCEiACsCAyA@uBB{ADuANqCNwBPuBZoDp@eHrAsN~@}JHcAF{@F{@FcAFeBBcB?eA?q@CsACaAI{AIgAG_AKaASwAO_AMu@YuAQu@]oAe@{AsAaEqJmYwLk^{@eCs@oBaAiCg@mAs@_ByA_Dy@}A{@wAy@sA]i@q@aAo@}@o@{@q@s@c@c@c@a@y@o@y@i@w@a@]O[Kk@Qe@MaAQaAKy@Em@Ay@@q@BuCHaELcELqUx@sCJqIVsELmBBsA?yACaAE{@GuAKuAQmAQgASsAYiBa@sAa@qAa@uAi@mAg@{@_@iCsAmAs@s@c@k@a@aAq@m@e@y@q@s@m@u@s@iAeAcBkBeAmAoAaB_AuAe@u@e@u@sBqDqC_Fy@{A_D{FmHwM}N{W}K_SuF}JyDaHcB}CyAeC{@uAm@{@_AsAq@{@a@g@qA{AwA{AeAeAoBeBw@o@wAgA}@k@mBiAyBmAg@UoAk@{@_@iLkEyIgDiNkFyBy@s@Yq@YyB}@k@Ya@SmAs@YSYQ}@q@iA}@u@q@gAgAuBcCq@y@oEyFs@aAo@}@k@_Am@gAu@yAaAuBe@gAg@sA}AcEy@}BgAwCcGaPiBaFaAeCcJwVsD{JuC}H}@cCgB{E{@sBoAmCsAiCiAqBq@gAoAmBEEAAQSa@c@e@k@oAsBcBgCkAiBk@w@[c@kKePIMe@q@S[e@u@Wc@{BmDaDqEQYQWkAeBeA_B{@qAQYq@gAcD_F_B_CyBaDe@o@_AsAoAmBWa@Yc@u@kAuB_DoAqB_@k@a@i@oBaDiDqFuB_DOQaBaC_G}Iu@oAwHiLw@gAEGi@s@mBwCcA}AoAuBgBiCaBeCsAmBs@iAyAcC}BeEgAuBgAuBuAmCsFuKoAaCmBwDeIyOsEaJqIkPsCuF_@u@}CaGcDmGyAwCs@sAgAqBuAoCmBsDaAiBsAgCuAkCuAoCwAoCsAkCgB_DWa@q@gAyAuB_@g@}@iAeAqAi@m@i@i@s@u@wAsAkB_B}AsAiAaAmBaBwDcDkBaBs@o@{A{AsAyAcC{C}A{BqAqBgBqCm@cAwA{BgCcEaA{AqBcDoAoBwAaC{AaCkAiB{AcCq@eA[i@MS{BoD{EuHMSm@aAQU]k@{@sAm@aAk@}@mAmBu@mAq@eAeIsMoD}EcN{PwGkIsAcBmDmEmA{As@}@mA}AcAoA_AmAq@}@Y]mBeCoAaBu@aAw@eAiAuAqAcB}@gAo@w@kMcPiCaD_c@si@kL}NmBaCqCkDuCqDsAaBeEkFkEqFaBsBy@eAy_@af@iCaDsCqDgHaJaFiGeAsA_LqN{CyDcBwBcBwB_AkAgFsG_AkAgLyNgEmFeJgLuAgBoA}AoA}AaAoAaAkAsDwEgJmLq@{@oJuLgCcDgAuAqA}Aa@k@o@w@q@y@q@{@m@w@sAcBq@{@q@y@_@g@q@y@o@{@s@}@[c@SW[c@OU_@i@[g@i@}@Q[k@aA[m@i@cA]q@Yk@Ym@g@kAWo@e@mAWq@Um@Yw@Us@Sm@Ww@]mAUw@I]YgA]wAYmAWqAYyA]kBa@mC]uBYoB[sBc@oC[mBSwAMu@U{AYkBUyA[kBU{AKu@UyASqAUyA[mBSuA[qBc@oC[sBa@mC[oB[sB[sBWsAUoAQy@YqA[uASw@YkAi@iB_@oAQg@Mc@c@oAc@kA[y@Yu@Se@Yo@c@eA[o@]q@[m@[m@[m@i@_Ak@aAaBoCgKaQo@eAoEuHaJiOiGiKgB{CmDaGwBoDcCeEyAeCwBoDk@cAk@aAgByCsBgDqBgDoEqHU_@EGYg@{AeCgKoQqDgG</points>\n    </polyline>\n    <duration>\n     <value>10267</value>\n     <text>2 hours 51 mins</text>\n    </duration>\n    <html_instructions>Merge onto &lt;b&gt;ON-401 E&lt;/b&gt;</html_instructions>\n    <distance>\n     <value>318830</value>\n     <text>319 km</text>\n    </distance>\n    <maneuver>merge</maneuver>\n   </step>\n   <step>\n    <travel_mode>DRIVING</travel_mode>\n    <start_location>\n     <lat>44.7393229</lat>\n     <lng>-75.5006680</lng>\n    </start_location>\n    <end_location>\n     <lat>45.2083667</lat>\n     <lng>-74.3482841</lng>\n    </end_location>\n    <polyline>\n     <points>wcapGdfykMeFsIsZch@sMuTuBoD}CkFqJaP]o@gTm^QYQYm@eA[q@eBwCmDyFEIkCqEgAkBuA}Bq@oAwDoGeCgEiDuFgAaBmBoCmB{BwA}AiBiBqC_Cu@m@s@g@_Ao@}@k@aAi@y@c@[OkEwBaCkAkCoAs@[aBy@wBeA{E_CiCoAuBeAoAm@aCkAsCsAkB{@_Ae@sAq@}@e@_Ag@}@i@{@m@cBmAoAcAe@a@g@c@{@w@y@u@g@g@w@{@w@}@mA{Aw@eAo@}@g@y@k@_AeA}AaAqBkAuBw@yAaByCwAkCeCuEsByDiBgDqBsDqAaC{AqCiC}EoBqDaIyNcKkR{Pq[sOoYwMoVkDsGuEuI{Yyi@kDqGaG{KoCcF{GgM}LeUm@kAIOk@cAaB_DiAsBcAmB_@m@gBmDsD_HoBqDuByDaAiBm@gAqAcCm@iAc@y@iAyBgBeDmCcFcB}CsAeCq@oAq@qAmAyBg@_AsAaCcCsEwDeHq@oAq@mAo@oAqBuDsBwDqA_CoA_C_DaGqBsDaB}CU_@kAaCsB}DqAcCqBuDqCkFwFeKsFeK_DaGmCcF{EcJ_CmEaD_GaDaGaJwPcCuEgCwEiDoGQYgCyEcAmBs@sAoVqd@uB}Dq@qAq@oAq@qAgCwEuAgCs@qAcIgO}BiE{FmK_@q@_@q@_@s@s@sA_@s@i@cACEeE{HaFiJSc@oF_KgAwBw@_Bu@}AM[mBmE]{@o@wAy@sBq@_B}@wBQa@m@wA}@wBo@}Ac@gAw@mB_@{@gAkCaAaCaA_CeBgEiAqCmAuCwh@ipAc@gA?Aw@kBcSif@_`A}}BgDeIaC_G_CyFeBeEwAoDoA}DiA}DcZajAUy@oQwq@mKea@gRcm@aOyc@uFkQsJcZcG{RgHuTySgq@qHgVsJm[oG_Ts@}BqGkSsR_n@oNqd@gEkN{Ku\\qBgGwG_S_EsLy@gC}AqEwCwIsA_EsAaEwCwIeFkOoF}OgEkMwBgHqGgTkKc^qGuTgA{DoFoQ_A}C}F_SqByGeCoIcCmIcH{UkI_YmDwLyH{WcLk`@sEmOyA_FsBcHuDeMaCiI_Ke]eB{Fu@qCcAaDoH}Vc@sAo@eBYq@Wg@]q@_@q@]q@w@oASYY_@q@{@k@q@y@y@eAaASQMK[UWQc@[YQ]Qc@Wa@QaAc@_@O]MsA][I}A[}Ew@}`@iGaAQc@Ia@Ia@IYGiA]e@O[MqAk@{@c@c@Y{@k@_@WWS_A{@c@c@]]c@e@[e@u@aAi@w@Ye@S]_@q@i@kAc@aAYu@[_AWy@Y{@sAmEmBmGuMyc@eCkImPuj@IWa^ulAsDcM_DmKuBcHoAcEsDeMs@eCy@gCu@iCm@qBs@cCi@iBi@gBy@sCk@iBs@aCyA_Fe@_Bu@iCoFuQmBsGoBwGqAmEaCcI_C_IuA{EaA_DuBiHeAiDuAwEeBuFmA}DcAeDqAiE_C{HcAoDs@gCaBuF}@}CgA{Dy@{C}AoFq@}BK_@Ss@{CcK_BqFM_@]qAgAoDm@wBcAgDoAeEe@_Bo@sBmAgEwAaFy@uCmAiEiAuDgAuDiAaEqAoEcAiDkBqGkAyD{@yCgAqDiAyD]iA]iAu@eC{ByHiHiViBiGuA}EqByG_BmFgBcGkBkGeFeQiC{I{BuH{CcKiCuI{AcF{AaFgB{Fq@}BcByFsBwGmBwGoDwLaGcSeFaQyAaFeH_V_EeNs@cC{GgUgAqDcCkIyAaFqCoJiBqGaBoGqGuWwA}F{@aDwEiRU{@Mk@mCuK{DuOiCeK{AeGoBkIkLod@mDgOyEmRyFsToKsb@?AaC{Jw@_Dq@kCmCsK_DiM{FcVm@oCMs@Mo@WwAw@aFa@sCg@oD}AwKgFs^qBgNm@gEy@eGaAgHoAeJ{AmKgAuHOqAS_BOaBOqAQmBMkBKcBIoBGsBEqB?mA@oA@uBDgCFwBFaBBe@HoAFcAHcALqAP{ANqA^sCRqANy@Hg@VmA^aBVeAj@qBz@wCnIqYzEaPpJc\\|B{H^sAbEcN|A{FBEFYrG_UzCiL|@}Ct@oC`AaEt@_Dr@iDp@gDn@gDj@iDv@gFl@iEh@mE^oDXsCZqD\\kERwCLqBFqAHwANaEJuCJsENoGRiJ^mOPcINyFN}GTuJZ}MVuKb@sQPiIHsDBcB@aA?mAAwCCwBOkJMgKG_DAsACuAKeGOmJMmHKmGMuHKiGAqAKyFKcGEcCKoHMkIKqHG{CCoAImFEaBGyAU_FAUG}@g@kFa@sDWqBKo@SsAOy@WuAOw@WsAe@qBm@eCYeAw@kCeAkDu@gC_BgFyAaFyA{E{BqHqAiEmAaEsAmEeB{FoAgEs@cCmFgQ}BuHiAyDi@oB[qAa@oBWuAMy@Kq@U}AOwAOyAKwAG{@G}@GyAE{ACwACaB?EGmFEiEYk\\U}SAw@EgFM_NCcEEyEUsRg@gh@C_DQwNOgNCeBGqBI{AMiBWwC]eD_AeJkAsL_AcJq@qGImAMmAu@yHmAiL?AgAaLo@wG_@yD]{COiAOcAk@wCi@{Bs@kCk@gB}AgFuFuQkGwSsCkJoMqb@s@}BoCiJkBwFqLm`@qAeEeQal@_HeUcFwPq@yB[cAiB}FcAgD_@sAgAoDq@yBc@{AQg@qGiTmAeE{@sCo@wB[}@oAcEm@mBs@sBYq@c@kAk@uAeAuBu@gB_F{LkAwCqA}CyAuDoJ{UkCqG_C_GoB_FqHaR_C{FsCgHuCiH}B{F}ByFoB}E_C}FoB_FwAoDiAsC}BwFa@gAw@wB}@{B{BwFkAsCiAsCwAmD}@{BuAmD}CcIsAoDy@_CyJiXyJkXKYqAmD{AgEuB}F_BmE{AiE_BkEeAuCeAuCo@eBcAuC}@cCa@iAy@}BgAyCeAuC{@_Cy@{By@_C{@_CeKeYWs@eB_FiBcFqD}J_CuGiBaFaCwGgAwCoAmDiBeFwIgV_BqEaC{GqAqDcFgNIW_AiCISoCqHiGyPgHwRm@aBo@eBo@cBc@kAe@gAYq@g@gAYm@{@cBcAiB}@wAk@aA]g@_@i@[e@a@i@q@}@_@c@q@{@s@{@eD{DsLoNcBoBaAkAaAkAaAmAs@{@o@{@o@{@o@_Ag@w@c@u@e@u@w@wAaAkBu@}Aw@kBcAkCYw@s@qBc@wAu@cCIUsQsl@iAsDq@}Bc@sAs@cCW{@}@{Cq@_C{@uCmBsG_BsF_@qAw@mC_CgIgDiL_A_DsAwEiAwD_BwFo@wBiAyDu@cCs@eCk@mBs@cCe@}Ac@yAq@aCk@mBu@eC]oAm@wBm@qB_@kAW_A}@}C_@qAk@iB]oA{@uC_AcDs@cCgBgGsCwJqAoE}BaIsAuEqAoEkLw`@wAaFsBeHqAsE}AoFsAsE{AoFiBiGqAuEsAuEgBiGwEiPgC}IoDeMgBiGs@eC_BcG}@gDcBoGaG{TwBeIuBaImFgS_DmLwBeIq@eCg@iBWw@Uo@Qc@Sc@Ym@Sa@Uc@Wa@U]U[Y_@]c@c@e@e@c@a@]USYQ[Ue@Y{Ay@gB_A}C_BkCuAqAq@KESMeB}@aB}@oAq@e@[e@]c@]e@a@q@w@QUQU]e@MSIKa@u@]o@Q_@Ug@Qa@Si@gAsC}@_Cy@wBoFqNkCaH}DiKcCsGaBiEsAmDM[cCqGy@wBeBoEkBaF_BeEsCmH_CgGqBmFeCsG_BcEACiAwCc@kAWq@eCsGqCkHcCsGiAsCiCoGWk@[q@e@cA</points>\n    </polyline>\n    <duration>\n     <value>3604</value>\n     <text>1 hour 0 mins</text>\n    </duration>\n    <html_instructions>Keep &lt;b&gt;left&lt;/b&gt; at the fork to stay on &lt;b&gt;ON-401 E&lt;/b&gt;</html_instructions>\n    <distance>\n     <value>108806</value>\n     <text>109 km</text>\n    </distance>\n    <maneuver>fork-left</maneuver>\n   </step>\n   <step>\n    <travel_mode>DRIVING</travel_mode>\n    <start_location>\n     <lat>45.2083667</lat>\n     <lng>-74.3482841</lng>\n    </start_location>\n    <end_location>\n     <lat>45.3501915</lat>\n     <lng>-74.0641189</lng>\n    </end_location>\n    <polyline>\n     <points>iw|rGvcxdMqC_GqAoCe@aA{AeDACsAqCmDoHwGmNcHcOcEsIu@aB_AqBaBkDwBsEsBkEUe@iB{DoAgCk@mAs@sAw@_BqAkC_AgB{@kBO_@O_@Wo@a@oAM_@I[IWK_@EQU{@WoAWwAa@{BUsA_@}BcGu^k@gDyAoIaGg]aBoJY}Ak@yCa@sB_@cBc@gB_@sA_@qAg@eBk@cBOg@Sg@e@mAy@qBo@}Aq@_Be@kA{@qB]y@mAwCg@kAmAyCaP_`@}@sBs@eBo@}Aq@_B{@uByAmDyDeJ]}@aBgEyCaIaFsMkCeHkCcHiDcJw@qBkCcHwB{FoCcHeBwEuCyHcCoGaCqG}AaEe@mAiCcHmCiHeDoIcA_CmAsCeK}SaC}E}B{EqCuFwBoEKWaAwBUe@uAaDcAgC}@aCk@}AeA}Cu@{Bs@}BYw@sN{c@c^yhAc@sA}@qCqA_EcAcDyB}Gu@_Ci@aBc@kAw@oBSe@Uk@y@gBcBeDi@aAs@mA_@o@e@w@e@s@a@k@]e@a@i@aAmAa@i@cC_De@m@MOiIwJ_d@sj@kAwA_O_RQUsNiQ[a@}BsCup@uy@sDqEuC}DY[W]sCmDkBcCc@m@kBkCiC{Dk@{@uAuBcA}AoEaHyBeDiBuCs@eAw@mAgBqCiDoFy@oAu@qAk@cAk@cA}@iB{@kBcAeCg@qAsEwMgJqXuIeW_B{E}AuEqGiRoDsKw@kC]eAm@oBqAeEgB{FiAsDcL{^{Sqq@}E_PyLi`@Mc@{A}EuMwb@iAmDm@sBaAyCiB_GiGiS}DiMaDiKgB}FwBcHeBwFyBeHMa@a@oA}Qam@iEgNu@eCuAqEoDiL_BkFUs@GQoQ{k@_AwCoBoGqPwi@sG}S}C}Ja@iA_BaFmA{DaAsCKYsDqLuAsE</points>\n    </polyline>\n    <duration>\n     <value>954</value>\n     <text>16 mins</text>\n    </duration>\n    <html_instructions>Continue onto &lt;b&gt;Autoroute 20&lt;/b&gt;&lt;div style=&quot;font-size:0.9em&quot;&gt;Entering Quebec&lt;/div&gt;</html_instructions>\n    <distance>\n     <value>27512</value>\n     <text>27.5 km</text>\n    </distance>\n   </step>\n   <step>\n    <travel_mode>DRIVING</travel_mode>\n    <start_location>\n     <lat>45.3501915</lat>\n     <lng>-74.0641189</lng>\n    </start_location>\n    <end_location>\n     <lat>45.3611844</lat>\n     <lng>-74.0479834</lng>\n    </end_location>\n    <polyline>\n     <points>umxsGvs`cMEk@?EAEe@eBm@wBeDcMs@iCKYy@qCi@_BsA_EyA_E{A_E_@gAK_@K_@UgAMs@MeAIeAI]ACAQC_@A_@Ak@?cA@cADcB@aA@k@?g@Ac@Ce@Cm@Cc@Gm@Ii@E_@I]Kk@Qm@Og@Sg@O_@O]IO_@m@Wa@Y[]_@YWYU]U_@Sk@Wo@So@Mk@Ge@A]?S?_@B_@D_@Fa@Jm@RwB~@}@\\c@La@LUHQDc@Ji@LcAPaAPKBEB_@T</points>\n    </polyline>\n    <duration>\n     <value>80</value>\n     <text>1 min</text>\n    </duration>\n    <html_instructions>Take exit &lt;b&gt;29&lt;/b&gt; toward &lt;b&gt;L'aéroport international Montréal-Mirabel&lt;/b&gt;/&lt;b&gt;Autoroute 40&lt;/b&gt;/&lt;b&gt;Ottawa&lt;/b&gt;/&lt;b&gt;Gatineau&lt;/b&gt;/&lt;b&gt;Montréal&lt;/b&gt;</html_instructions>\n    <distance>\n     <value>2129</value>\n     <text>2.1 km</text>\n    </distance>\n    <maneuver>ramp-right</maneuver>\n   </step>\n   <step>\n    <travel_mode>DRIVING</travel_mode>\n    <start_location>\n     <lat>45.3611844</lat>\n     <lng>-74.0479834</lng>\n    </start_location>\n    <end_location>\n     <lat>45.3927268</lat>\n     <lng>-74.0595186</lng>\n    </end_location>\n    <polyline>\n     <points>krzsGzn}bMa@Ho@Ho@LgAPwCl@yCp@cAR_@JuA^s@RiCt@g@Lg@L{@Tw@Pg@HyLfDwCv@}Bl@}Ab@yCx@wDbA_D|@aAVsA`@}Bn@mVrG[J]HYHkA\\C?y[zI}Cx@kVvGmA\\mA\\aCn@YHkL|CwBj@</points>\n    </polyline>\n    <duration>\n     <value>126</value>\n     <text>2 mins</text>\n    </duration>\n    <html_instructions>Merge onto &lt;b&gt;Autoroute 30&lt;/b&gt;</html_instructions>\n    <distance>\n     <value>3622</value>\n     <text>3.6 km</text>\n    </distance>\n    <maneuver>merge</maneuver>\n   </step>\n   <step>\n    <travel_mode>DRIVING</travel_mode>\n    <start_location>\n     <lat>45.3927268</lat>\n     <lng>-74.0595186</lng>\n    </start_location>\n    <end_location>\n     <lat>45.4004768</lat>\n     <lng>-74.0567087</lng>\n    </end_location>\n    <polyline>\n     <points>qw`tG~v_cMiCt@mA\\qB`@]DG@_@Dw@Dc@B_@?s@Am@Cu@Eu@Km@Mg@KeAYm@So@WqAo@aAo@WS]W_@[YWs@s@]a@a@i@}@oAU_@[k@q@mA_@]</points>\n    </polyline>\n    <duration>\n     <value>35</value>\n     <text>1 min</text>\n    </duration>\n    <html_instructions>Take the exit on the &lt;b&gt;left&lt;/b&gt; toward &lt;b&gt;Autoroute 40 E&lt;/b&gt;/&lt;b&gt;Montréal&lt;/b&gt;</html_instructions>\n    <distance>\n     <value>952</value>\n     <text>1.0 km</text>\n    </distance>\n    <maneuver>ramp-left</maneuver>\n   </step>\n   <step>\n    <travel_mode>DRIVING</travel_mode>\n    <start_location>\n     <lat>45.4004768</lat>\n     <lng>-74.0567087</lng>\n    </start_location>\n    <end_location>\n     <lat>45.5011632</lat>\n     <lng>-73.6689024</lng>\n    </end_location>\n    <polyline>\n     <points>_hbtGle_cMiBgFWw@EKISIScb@yfAwQme@_@aAuAwDm@aBwE}LqBeF_DkIk@}Ae@sA_@eA}@wCk@}B}@{Dq@oDWyA[qBQqAWoBMqAYwCo@cJg@wGg@wG{AiS_@eF]sEeAeMUyBe@mEa@kF_AmK_@iFWcDU_D[wD]qEa@oFMeCIyASgEMoDSkFQoFQgEScFUgGYyHWsGUoGUeG[cIMyDOmDSmFOmEYyHi@aNMuD[sIIsBQwEMcDGuBImBGyAC_AEgAE}@EmAEiAQyEIwBCe@?a@Ay@AcB@kBFoBHsCZaIVqH|@aXLeDDeALuD\\{Id@yMXwINsD^eLRkF`@cLb@mMJuCJcDHqBDmAFwABaB@e@@cAA{@AuBCu@Cs@E}@Cg@Gy@Ei@Gk@I}@Go@M{@YmBSeAWoAOk@YeASw@Oe@Oe@]_Ao@_B]y@Ui@{@oBmAoC_BqDs@aBa@{@yAiDeKwUg@oAm@uA}@qB}AmDaAyBqCmGKU{Uqi@aCsFgC}FiAmCiAkCmAaD_AqCc@sAYaAi@sBk@uBa@mBo@sCw@eEo@iDGYg@sCc@qC[uBe@iDWcBqAuJk@sDk@iDw@aEgAeFk@mCk@eCgAgESy@c@}Ag@eBo@wBq@wBkAoDq@mB}@aC}BeGcBiEeAsCmA_DgA{CqAeDaDeIiE}K}Ni_@iByEeD{IgBiE{ByFwBsFcGuO]_A_@gAg@_B[iA[mAWeAKg@Kg@Q_AQaAOcAM{@Mw@OmAkCqSwD_Zg@qDeDmWo@mECKO_ASaAs@qD_@wAMk@Ok@Qi@a@qASk@[aAo@eB[}@]}@Yq@cAeCyCoHuBgFoA}Cs@cBgCoGcH_QgFiM}Nk^aO{^_B_EqA{CwAiDeAkCeHoQ_FwLcAuCgB}EcCmGyIqUeAqCuDuJ{CcIsE}LKW}BaG}CeIwQse@uGaQyE_Me@sA_@kAe@}AoAoEOk@YiAWmA]gB]kB_@eCYoBY_CU_CUuCMeBImAGsAIoBGsACgAKqEOoGWiIQ{G]}N?E{@m]a@yOCmAOuFQuIGcDAqCAoD@uEFsHLcGPmITqJf@eSZuMF_CHsDR}H?An@cXFgDFiBToKJqEBaAZcM\\wOJ}F?A\\qMFkE@cAAsAAcBCaAC_AK}BKgBGs@ScCQwA]cC]wBa@wBc@kBkAmF_BqHmAyFoAyFi@_CgAeFkAoFuBuJiAcFu@yDi@sC?AW{A_@iC[wCUeCO}BKsBI{EC}@A_AEgCIcGI}FEaCGeDMmGEgDI_CCc@CUCe@Ee@ASKcAMeAGa@Ii@WyAS}@Qy@Og@Oi@Oc@K_@Oc@Qe@MWOa@Q_@Sc@Q[g@aAm@_A{@iAc@m@KOKQQUQWgAwAqAiB}DqFmAaBc@m@mA}AoBoCg@w@</points>\n    </polyline>\n    <duration>\n     <value>1209</value>\n     <text>20 mins</text>\n    </duration>\n    <html_instructions>Merge onto &lt;b&gt;Route Transcanadienne E&lt;/b&gt;/&lt;b&gt;Autoroute 40 E&lt;/b&gt;</html_instructions>\n    <distance>\n     <value>33525</value>\n     <text>33.5 km</text>\n    </distance>\n    <maneuver>merge</maneuver>\n   </step>\n   <step>\n    <travel_mode>DRIVING</travel_mode>\n    <start_location>\n     <lat>45.5011632</lat>\n     <lng>-73.6689024</lng>\n    </start_location>\n    <end_location>\n     <lat>45.5017343</lat>\n     <lng>-73.6638681</lng>\n    </end_location>\n    <polyline>\n     <points>g}utGrms`Ma@_@CAAACEEEMQSYSYYa@Y_@QUOWQYMYMYIYK_@I]Ga@E_@Ea@Aa@Aa@?cA?w@@Q?KBKBOD[H[FSFOFQHKHMHKHKBCFKv@w@FIJQ</points>\n    </polyline>\n    <duration>\n     <value>33</value>\n     <text>1 min</text>\n    </duration>\n    <html_instructions>Take the &lt;b&gt;Autoroute 15 S&lt;/b&gt; exit on the &lt;b&gt;left&lt;/b&gt; toward &lt;b&gt;Autoroute 10&lt;/b&gt;/&lt;b&gt;Montréal&lt;/b&gt;/&lt;b&gt;Centre-Ville&lt;/b&gt;/&lt;b&gt;Pont Champlain&lt;/b&gt;</html_instructions>\n    <distance>\n     <value>497</value>\n     <text>0.5 km</text>\n    </distance>\n    <maneuver>ramp-left</maneuver>\n   </step>\n   <step>\n    <travel_mode>DRIVING</travel_mode>\n    <start_location>\n     <lat>45.5017343</lat>\n     <lng>-73.6638681</lng>\n    </start_location>\n    <end_location>\n     <lat>45.4726889</lat>\n     <lng>-73.6099036</lng>\n    </end_location>\n    <polyline>\n     <points>y`vtGdnr`MLMx@u@j@g@^]l@q@Z_@PORWV]|@kAv@gAT_@Xa@t@oAvAeCtBcEbDaGbHkMbAkBvDcH`@u@`@y@Vc@Zq@^u@Zu@Vo@Rg@Ri@Xy@^iA`@qAb@wAx@oC`AyCb@uAjDyK~AuEhBkFhBoF~@mChAeDlAoDtBkGz@eC?An@gBvBoGdDmJzAkEnAqDfA_DrAaEnB}FpFyOjD{JtBkGr@sBNg@L[L_@\\w@Ti@Xo@P]R]b@s@`@i@PUVW\\]h@i@d@a@tAgAz@q@^[`@]JMb@e@`AmA\\i@p@iAv@yAtAqCZq@PY@Cl@mAvAwCd@eARg@l@}Aj@}Av@}BfBeFv@{BXw@lBcFL_@</points>\n    </polyline>\n    <duration>\n     <value>267</value>\n     <text>4 mins</text>\n    </duration>\n    <html_instructions>Continue onto &lt;b&gt;Autoroute 15 S&lt;/b&gt;</html_instructions>\n    <distance>\n     <value>5349</value>\n     <text>5.3 km</text>\n    </distance>\n   </step>\n   <step>\n    <travel_mode>DRIVING</travel_mode>\n    <start_location>\n     <lat>45.4726889</lat>\n     <lng>-73.6099036</lng>\n    </start_location>\n    <end_location>\n     <lat>45.4796572</lat>\n     <lng>-73.5914502</lng>\n    </end_location>\n    <polyline>\n     <points>ikptGz|g`M?a@@ALa@`@kAh@yAl@mBp@kBr@wBBGlF}OPk@Vw@Z_ATu@P}@P_ALwAHuABwA?}@AaAOsAAKOeAc@kBc@wAY}@[s@o@}@MQQSk@o@_@c@]]w@o@qBsAIGa@Ke@G_@Ee@G[GSG_@Ig@QgDiAqDgA_AScD}@kBu@_BaAkA_A{@w@y@y@w@cA{@qAyAqC_@q@_@s@</points>\n    </polyline>\n    <duration>\n     <value>138</value>\n     <text>2 mins</text>\n    </duration>\n    <html_instructions>Take exit &lt;b&gt;63E&lt;/b&gt; on the &lt;b&gt;left&lt;/b&gt; to merge onto &lt;b&gt;Autoroute Ville-Marie&lt;/b&gt;/&lt;b&gt;Autoroute 720 E&lt;/b&gt; toward &lt;b&gt;Centre Ville&lt;/b&gt;</html_instructions>\n    <distance>\n     <value>2223</value>\n     <text>2.2 km</text>\n    </distance>\n    <maneuver>ramp-left</maneuver>\n   </step>\n   <step>\n    <travel_mode>DRIVING</travel_mode>\n    <start_location>\n     <lat>45.4796572</lat>\n     <lng>-73.5914502</lng>\n    </start_location>\n    <end_location>\n     <lat>45.4910209</lat>\n     <lng>-73.5747258</lng>\n    </end_location>\n    <polyline>\n     <points>{vqtGpid`Mm@g@iBsCcCmE}Rc^IQIQq@qAa@y@o@oAy@_B_BqCmA}BOYIOGKS]aBwCq@mAq@iAaA_Bm@aAoAkBmBuC_@g@]e@sAiBiGqI</points>\n    </polyline>\n    <duration>\n     <value>88</value>\n     <text>1 min</text>\n    </duration>\n    <html_instructions>Keep &lt;b&gt;left&lt;/b&gt; to continue on &lt;b&gt;Autoroute 720 E&lt;/b&gt;</html_instructions>\n    <distance>\n     <value>1818</value>\n     <text>1.8 km</text>\n    </distance>\n    <maneuver>keep-left</maneuver>\n   </step>\n   <step>\n    <travel_mode>DRIVING</travel_mode>\n    <start_location>\n     <lat>45.4910209</lat>\n     <lng>-73.5747258</lng>\n    </start_location>\n    <end_location>\n     <lat>45.4958139</lat>\n     <lng>-73.5669359</lng>\n    </end_location>\n    <polyline>\n     <points>{}stG`aa`MA[A??AMY_AwAiEgGa@s@}@aBs@yAWo@_@sA[qAGUs@sBUu@YeAcBcHK]IMUUSOIEMIUE[@QAO?IAGAEACAGEGEEEKK</points>\n    </polyline>\n    <duration>\n     <value>75</value>\n     <text>1 min</text>\n    </duration>\n    <html_instructions>Take exit &lt;b&gt;4&lt;/b&gt; toward &lt;b&gt;Rue de la Montagne N&lt;/b&gt;/&lt;b&gt;Rue Saint-Jacques&lt;/b&gt;</html_instructions>\n    <distance>\n     <value>841</value>\n     <text>0.8 km</text>\n    </distance>\n    <maneuver>ramp-right</maneuver>\n   </step>\n   <step>\n    <travel_mode>DRIVING</travel_mode>\n    <start_location>\n     <lat>45.4958139</lat>\n     <lng>-73.5669359</lng>\n    </start_location>\n    <end_location>\n     <lat>45.4961802</lat>\n     <lng>-73.5675859</lng>\n    </end_location>\n    <polyline>\n     <points>y{ttGjp_`Mw@xAQf@</points>\n    </polyline>\n    <duration>\n     <value>13</value>\n     <text>1 min</text>\n    </duration>\n    <html_instructions>Turn &lt;b&gt;left&lt;/b&gt; onto &lt;b&gt;Rue Jean d'Estrées&lt;/b&gt;</html_instructions>\n    <distance>\n     <value>65</value>\n     <text>65 m</text>\n    </distance>\n    <maneuver>turn-left</maneuver>\n   </step>\n   <step>\n    <travel_mode>DRIVING</travel_mode>\n    <start_location>\n     <lat>45.4961802</lat>\n     <lng>-73.5675859</lng>\n    </start_location>\n    <end_location>\n     <lat>45.4982235</lat>\n     <lng>-73.5651801</lng>\n    </end_location>\n    <polyline>\n     <points>c~ttGlt_`M_AoAaAoAKKYQgB_CgAwA_AkA</points>\n    </polyline>\n    <duration>\n     <value>67</value>\n     <text>1 min</text>\n    </duration>\n    <html_instructions>Turn &lt;b&gt;right&lt;/b&gt; onto &lt;b&gt;Rue Saint-Antoine O&lt;/b&gt;</html_instructions>\n    <distance>\n     <value>295</value>\n     <text>0.3 km</text>\n    </distance>\n    <maneuver>turn-right</maneuver>\n   </step>\n   <step>\n    <travel_mode>DRIVING</travel_mode>\n    <start_location>\n     <lat>45.4982235</lat>\n     <lng>-73.5651801</lng>\n    </start_location>\n    <end_location>\n     <lat>45.5000690</lat>\n     <lng>-73.5689619</lng>\n    </end_location>\n    <polyline>\n     <points>{jutGje_`MIPM^_B~DUj@GRmB~E}A`EO^</points>\n    </polyline>\n    <duration>\n     <value>104</value>\n     <text>2 mins</text>\n    </duration>\n    <html_instructions>Turn &lt;b&gt;left&lt;/b&gt; onto &lt;b&gt;Rue Mansfield&lt;/b&gt;</html_instructions>\n    <distance>\n     <value>359</value>\n     <text>0.4 km</text>\n    </distance>\n    <maneuver>turn-left</maneuver>\n   </step>\n   <step>\n    <travel_mode>DRIVING</travel_mode>\n    <start_location>\n     <lat>45.5000690</lat>\n     <lng>-73.5689619</lng>\n    </start_location>\n    <end_location>\n     <lat>45.5018118</lat>\n     <lng>-73.5673445</lng>\n    </end_location>\n    <polyline>\n     <points>mvutG~|_`MuBoBiAaA{CqC</points>\n    </polyline>\n    <duration>\n     <value>64</value>\n     <text>1 min</text>\n    </duration>\n    <html_instructions>Turn &lt;b&gt;right&lt;/b&gt; onto &lt;b&gt;Boulevard René-Lévesque O&lt;/b&gt;</html_instructions>\n    <distance>\n     <value>231</value>\n     <text>0.2 km</text>\n    </distance>\n    <maneuver>turn-right</maneuver>\n   </step>\n   <step>\n    <travel_mode>DRIVING</travel_mode>\n    <start_location>\n     <lat>45.5018118</lat>\n     <lng>-73.5673445</lng>\n    </start_location>\n    <end_location>\n     <lat>45.5017123</lat>\n     <lng>-73.5672184</lng>\n    </end_location>\n    <polyline>\n     <points>iavtGzr_`MRW</points>\n    </polyline>\n    <duration>\n     <value>13</value>\n     <text>1 min</text>\n    </duration>\n    <html_instructions>Turn &lt;b&gt;right&lt;/b&gt; onto &lt;b&gt;Boulevard Robert-Bourassa&lt;/b&gt;</html_instructions>\n    <distance>\n     <value>15</value>\n     <text>15 m</text>\n    </distance>\n    <maneuver>turn-right</maneuver>\n   </step>\n   <duration>\n    <value>19096</value>\n    <text>5 hours 18 mins</text>\n   </duration>\n   <distance>\n    <value>547015</value>\n    <text>547 km</text>\n   </distance>\n   <start_location>\n    <lat>43.6533096</lat>\n    <lng>-79.3827656</lng>\n   </start_location>\n   <end_location>\n    <lat>45.5017123</lat>\n    <lng>-73.5672184</lng>\n   </end_location>\n   <start_address>Toronto, ON, Canada</start_address>\n   <end_address>Montreal, QC, Canada</end_address>\n  </leg>\n  <copyrights>Map data ©2017 Google</copyrights>\n  <overview_polyline>\n   <points>e`miGhmocNiI`CeFmHaAmIgDai@mNiw@qJqq@sKgEq~@x_@cr@vI}d@oIg[ePa`@ax@kC_w@mV}h@af@iPa]y_@mq@xZehFje@{r@jCeDgf@}AgfBs]kiCmrAkuJog@gxAo\\o|DoIm_CdX_{A_Gcb@ad@aw@mnB_pDe_D}rIcnBa_NmRuyBvBcmBnAydC_{Bu_Oe@ktBdt@qiBhL}w@eSylD}i@coIi_AcxCm[maDga@__IsiAuiJmbEyzZagBwvMkSypEkT_~C_cAk_H|Y{fB_P{qC}l@q_C{S_i@yA}dAwj@mkB{^}jCbVi|DzUqoAkjA_`Lku@g_Ly\\e_Dud@ilDwh@ufBeh@}hBgT{jAkm@wv@q{@k_G_z@ifAeU{w@kRuaCieAsrEiw@uvAku@{vDez@_kCgCyqAoB}gBwXkw@om@q}AweBizEwaBkhF}oBy`M}hBqsKc|@_iDowAyrJ_B_v@lY}eBgEajByh@skH{`Dkzc@k]_vCeu@yuCyF_uAgBe_Bsa@mxBaDmfCiTasFmMqcJw]sgRsVaeScNggBxdA_tDdw@gxGr@kuAy[w{@qj@_iCi|@orEyd@o`Aaj@yn@knAsvDmn@msJmm@kvOal@o~Cmf@{cGjJazDcp@w_EgxAw~EcnA_}E^y`E}f@swDoPmt@wn@ofAuc@gtAmu@mvAiu@{{@km@qrAgd@}j@ie@_RuoBwr@svBi`BcmB_kB}sBmzBqc@kz@sTihBjGkpA}@gc@eo@kgBeVuPuoA`C_g@uPol@_|@_dA}`BgeAgd@s^}a@_w@isBidAi~AytAyvBihB_fDmvAojB_zIkaL{t@sdAuWirAgZonAohDuzFyaAkbBon@_k@spAi|@}aHgoMi{EqiJw`Di}H{uDuiMc|EytOevAe~DarAqc@inEsaO}~Eo|PsrBizJyAcq@`TqbAzw@atCzLsrAbBehGkFmoAa\\}jAc]qqAiCmoBaMajDeSowAsdCyeIy`FmqMsrAigDwi@ir@ch@s~Auz@cvC}vBcvHeSgl@e_@oTq`AcxBkfBsaEwt@u}CizDevJwfA}bDsqA_bBinCgvDamHivUmNo|@}K{MgSbD{wAn^eoCpl@wSsRwqA_jDua@eqEwN{|DpLcgEeq@_kBar@ykBoTslAqxAi_EyW{iB_y@yrBqhCecHcFgwFpFkcCmMi`A}TkuAkBcy@kc@yy@qHyY`p@{dA~|@ihClt@s{Afh@o{AoHa]u_@{MqjAghBik@ocA_NyHaLfSwI{H</points>\n  </overview_polyline>\n  <bounds>\n   <southwest>\n    <lat>43.6533096</lat>\n    <lng>-79.3834186</lng>\n   </southwest>\n   <northeast>\n    <lat>45.5024881</lat>\n    <lng>-73.5655647</lng>\n   </northeast>\n  </bounds>\n </route>\n <geocoded_waypoint>\n  <geocoder_status>OK</geocoder_status>\n  <type>locality</type>\n  <type>political</type>\n  <place_id>ChIJpTvG15DL1IkRd8S0KlBVNTI</place_id>\n </geocoded_waypoint>\n <geocoded_waypoint>\n  <geocoder_status>OK</geocoder_status>\n  <type>locality</type>\n  <type>political</type>\n  <place_id>ChIJDbdkHFQayUwR7-8fITgxTmU</place_id>\n </geocoded_waypoint>\n</DirectionsResponse>\n",
    "convertedResponse" : "{\"status\":\"OK\",\"route\":{\"summary\":\"ON-401 E\",\"leg\":{\"step\":[{\"travel_mode\":\"DRIVING\",\"start_location\":{\"lat\":\"43.6533096\",\"lng\":\"-79.3827656\"},\"end_location\":{\"lat\":\"43.6557259\",\"lng\":\"-79.3837337\"},\"polyline\":{\"points\":\"e`miGhmocNs@Rm@N]JmA^KBcAZSFWHqA`@a@Le@L\"},\"duration\":{\"value\":\"72\",\"text\":\"1 min\"},\"html_instructions\":\"Head <b>north</b> on <b>Bay St</b> toward <b>Hagerman St</b>\",\"distance\":{\"value\":\"280\",\"text\":\"0.3 km\"}},{\"travel_mode\":\"DRIVING\",\"start_location\":{\"lat\":\"43.6557259\",\"lng\":\"-79.3837337\"},\"end_location\":{\"lat\":\"43.6618361\",\"lng\":\"-79.3545239\"},\"polyline\":{\"points\":\"iomiGhsocNIo@c@oDGg@AASaB[_CGi@E_@EWAGKo@?EAE?EAE?C?C?C?C?G?C@G?GBKNeAFc@PkADU@I@E@I?C?C?C?A?C?E?EACAI?EEWKy@WqBYuBWwBg@qDm@{EGa@Gc@M_AKw@CO?EAC?ACIAECGCCCECCIEGEKGMGCCECGEEEIIEECCMSKOIQIOISGSEQCMCGAIAGAEAICS?IAI?KAO?K?Q@G?G?I@Q@G?G?E?GAE?EAEAIa@{Ca@oCc@eDEW[wBYwB]eCCSYsBQsAMeA_@qCa@wCa@qC[_CAIWgBe@gDU_BMcAOiAEWg@kD]aCOeAg@kDUuACQ?ICUUkDUmD\"},\"duration\":{\"value\":\"520\",\"text\":\"9 mins\"},\"html_instructions\":\"Turn <b>right</b> onto <b>Dundas St W</b>\",\"distance\":{\"value\":\"2492\",\"text\":\"2.5 km\"},\"maneuver\":\"turn-right\"},{\"travel_mode\":\"DRIVING\",\"start_location\":{\"lat\":\"43.6618361\",\"lng\":\"-79.3545239\"},\"end_location\":{\"lat\":\"43.6636638\",\"lng\":\"-79.3555052\"},\"polyline\":{\"points\":\"ouniGv|icNa@NOH[L}CvAKDOFOFODSD]JE@C@A@A@A@?BAH\"},\"duration\":{\"value\":\"22\",\"text\":\"1 min\"},\"html_instructions\":\"Turn <b>left</b> onto the <b>Don Valley Parkway</b> ramp\",\"distance\":{\"value\":\"220\",\"text\":\"0.2 km\"}},{\"travel_mode\":\"DRIVING\",\"start_location\":{\"lat\":\"43.6636638\",\"lng\":\"-79.3555052\"},\"end_location\":{\"lat\":\"43.7628257\",\"lng\":\"-79.3366969\"},\"polyline\":{\"points\":\"{`oiG|bjcNkI~AsGnA_F`AqCh@cAR{@Ro@PSHa@Nc@P]P[P_@T[RMHUPg@`@gA~@iD|C}BtB{@r@q@b@y@h@A@MF_@RCBq@\\\\GBSJUHe@Ry@Xg@PgAXc@Js@NoAVeBZ{@Pa@Fc@FiBVcAHcAHy@Fo@BeAFeCLgAFcAD{@B[@c@?]?YCSAYEIAQAm@MQESGc@OcA][M[I}@]q@Yq@Wy@[s@U_AYc@KA?o@Me@I[E[COA]C_@Aa@AW?[?s@As@Aq@Ak@Em@E[EUCWCSEWEIAe@ISEYIQEw@Se@O_@M]Ow@[WMKE[OSK[SUMSMc@YQKQOu@k@g@a@_@[[[WWUUc@g@[_@QSCAsE{FoBcCm@s@wAgBy@cAyAgB}AoB]c@W]Y_@MQm@aA[m@Q_@Se@Sm@Sm@Ok@Mo@Ki@G[Kq@Gm@Gq@Ek@Cm@A_@Aq@?q@@{@DcAHaBFkAJuAJ{AP_CNiCHwAD_ADeA@yA?m@Ac@Am@C_@C[Em@Eg@Gc@Ik@Ms@Kc@I[Om@I[O_@Qi@Sc@Ym@MWS][g@a@m@i@s@[e@c@o@m@y@]i@[e@Yc@Q]EIQ[Yo@Sc@KWIQEMa@oAY_A[kAW_AQq@Og@Ka@a@sASi@Wo@Wm@_@u@MQMUW_@SUw@_AOO[WSOWQWOUOOI_@OQIm@Sa@K[Ik@Kg@IuDe@w@Is@K}@M}@Ke@IOCMAWG]Iq@Qs@Yg@UWOa@Yc@]]Y]_@]_@Y_@]c@q@aA_AyAgBmCg@u@yBeDk@{@KMOSQWW]UYKMa@c@[WWUWSUOOIIGOIIEEC]MYMUIMCEA]K[G[GUCGAWCOAC?[A_@?U@C?Q@]@SBK@SBUDOBMDWFODIBSHWJIBGB[POHSJSNMH_@XYTUTKJUReAdAGDeBdBIHa@`@e@`@OL]Z_Ar@KFEBOLs@d@YPOJOFKFKHo@Zw@^?@sB`Ay@Z_@LWJKBc@NWFMD[Hi@No@NmAT]DUBSBoALkAH_AFuAHE?c@@Y@M@a@?E@sA@u@AuCDiBBcABwABa@@gA@e@@s@BQ@Q@S@Q@_@B]Ba@BcCRcCTgEf@aALWDE?K?mBToC`@a@Fc@FoAPuDf@o@HSBqBVmAL}@LkAF{BFgA@U?QCkGC_AA_A?i@?a@B[?_@@S?]?]@{DPeAJg@F}Cb@m@J_@DoARw@NSD{@L{@LmAPa@Fu@HkAN}@HkAHeADsAFgAD[@{AF{ADc@Bm@@qAFQ@[@aAFaCRE?SBC?q@HoC`@mAPq@Lm@Je@JyAZ_ARe@LcAVUF]Ja@JeD`AaAT_@J_B\\\\WDK@M?]Fo@Jk@J[F_@FaC^qEp@qDj@{B\\\\s@J[DOBq@J]D\"},\"duration\":{\"value\":\"564\",\"text\":\"9 mins\"},\"html_instructions\":\"Merge onto <b>Don Valley Pkwy N</b>\",\"distance\":{\"value\":\"12897\",\"text\":\"12.9 km\"},\"maneuver\":\"merge\"},{\"travel_mode\":\"DRIVING\",\"start_location\":{\"lat\":\"43.7628257\",\"lng\":\"-79.3366969\"},\"end_location\":{\"lat\":\"43.7680179\",\"lng\":\"-79.3292728\"},\"polyline\":{\"points\":\"ulbjGjmfcNQCU?i@@gA@qA@iA@u@?OAE?OAM?aBE}ACeBE_@AQAMAOCQGMGIECAEEEEGEEEKOEGEGMWGQEOAICIAICKAIAK?IAKAW?]CuDA]A}BESAEAIAo@OwCCu@AOImBIsBKiCGmBAOAGAEOa@\"},\"duration\":{\"value\":\"50\",\"text\":\"1 min\"},\"html_instructions\":\"Take the <b>ON-401 E</b> exit\",\"distance\":{\"value\":\"1070\",\"text\":\"1.1 km\"},\"maneuver\":\"ramp-right\"},{\"travel_mode\":\"DRIVING\",\"start_location\":{\"lat\":\"43.7680179\",\"lng\":\"-79.3292728\"},\"end_location\":{\"lat\":\"43.8381168\",\"lng\":\"-79.0719754\"},\"polyline\":{\"points\":\"cmcjG|~dcNCkBE{BCwBAwBA}@AwBAuBAsEAwCAwCAyB?yBAeHAwC?aBAwC?wBAyA?oCA}A?{@C_BA}@Cy@C{@E{@Cy@I{ACa@Iq@ImAIiAKkAKkAMkAUmBc@aDm@aEw@qFy@sFSsAk@}Ds@aFCS}@iGKo@Im@WcB_@kCgEuYe@cDCQa@sCc@sCo@qE_@_CIo@Ii@Gg@oEwZw@sFi@oDSsASuAeAmHSuA]aCiA{HM{@M{@k@yDYsBc@wCe@cDYsBS}AG_@M_AAAOsAWkBQkAUkBg@uDQuA[gCOqA]qCQyA[iCc@{D}@{HYiC]aDqB}QmFqe@[mCsAyLe@cEI]AOOgA_AqIu@{GWwBm@}Ec@oDCUQoAeAwHq@uE{@wFiBcL_AkFy@oEk@uC[aB[_B}@oEWiAe@}Ba@gBa@kB_@cBi@_Ca@_BKe@[oAMe@a@yAW}@Qo@a@oAk@cBa@gAo@eB}@yBq@cBYm@[q@[o@i@kAmAcCqB}D?Aw@{A_@y@_@{@c@eA{@yBeA{Cu@cCw@qCU_As@{CYyAScAIg@Mo@a@kCWqBM{@I{@OsAI_AEk@KoAOkBUqCQ{BUsCSoCU{CUoCUuCUwCSmC_@wEOwBc@kFYyDm@eIoC{]gAwNEu@yAiRiA}N}IsjAEUI_AKqAGy@IiAIoAC_@Eq@A[A_@Cw@CoAAiAA_@?q@@oA?{@@i@@s@BcADgADy@B_@Dw@Dg@Fq@H{@JgAFg@Hq@Hk@Lw@Hg@Jm@Nu@F_@Pu@^cB\\\\wAxBwIt@}CXiAl@}Bt@{CRy@d@kBXiA\\\\sAT}@`@cBZsA^_BTgAPcARmAPoALqAJiAHiAJoCB}@BcB?sBC_A?i@KuCOwBSmBMmAWaBKg@Mq@Ow@WgAEMMe@i@iBIY[{@e@mAk@qA[m@c@{@gAsBoAyBaBoCq@eAkDyFiAiBgAgByA_C_BkCsAwBmAsBiAoBaAeBc@w@Ua@uAgCYg@Wg@y@{AaAmBs@wAa@{@e@_AQ]c@_AK_@uHiPuB}DI_@{DiHoCaFgC{EqK}S{BaEoE_IcMqT_BsCOWgHgMyBeD}@wAeDmFkB{Ca@m@uAyBoAqBaAcBw@uA]q@iA}B{@mBk@yAu@qBoCqHkDqJgB_F]_A[_AoAqDkDuJ}HiTqEgMkDuJSk@IUWo@{HoTeSuj@yCoIaCyGgA{CwAuDUk@_@cA_@eAAC?AAA?C@A?G\"},\"duration\":{\"value\":\"731\",\"text\":\"12 mins\"},\"html_instructions\":\"Merge onto <b>Ontario 401 Express</b>\",\"distance\":{\"value\":\"22987\",\"text\":\"23.0 km\"},\"maneuver\":\"merge\"},{\"travel_mode\":\"DRIVING\",\"start_location\":{\"lat\":\"43.8381168\",\"lng\":\"-79.0719754\"},\"end_location\":{\"lat\":\"44.7393229\",\"lng\":\"-75.5006680\"},\"polyline\":{\"points\":\"gcqjGzvraNmAgDm@}AY{@M]k@}Aa@iAe@uAc@mAm@gBe@qAe@qAe@sAc@kAWu@Wu@i@wAAEe@qAc@oAqGmQ_Osa@a@kAQk@Wy@U}@Sq@Oq@UoAMk@Mu@WqBa@qDMeAq@{F{Ds\\\\G_@qCsUi@aEUsBWsBU_Cm@oFq@wF[uCWwBIq@[kCy@_H}@gHOkAm@mEyAoKUaBi@yCwBeN_@cCs@kEg@{CQkAkBgLyAiJw@_FcA{GuBkOEWCYESCSCSCS_@uC_@uC}AoLAQiAeKe@sDwAkKuB{NuAcK}AwJ{DaWkAsHo@{DcBsKi@_DY}AKm@Q}@mFcXcCsMmCgPeBeNm@}Ee@iEe@gF[gDQmBSmCScCWeDScCa@oFoAuO]{EyAeSQ{COiCIqBImEAwC?sC@aEF_Dr@}^BoAHeDFkDJqFNoHFwCBiBF_CHqDBcAL}ENuHFeDJaD@o@@oADwAD}ADmAFwB@y@LcFVwKFsD@WJqFP}IDyB@wA?iA?}AA_BA}AEcBEuAGoBKsBKwAK}AM}AQaBUwBWoB[}B]aCWkB[sBQgAGe@]aC_@iC]eCgAwH{Eu\\\\c@}C}B_P}Lk{@_BcLeCeQmByMqBoMCQe@mCy@sEUkAs@sDcA}EuEwTUgAo@aDEUwA}GgBiIi@qCWgAS_AUuAQcA[}BIc@M_AuDwWc@}CAEIm@aAsG}B_PWqBCMMw@OgAgA_IKm@qAgJEYyBcPsDcWc@gDIk@AGMu@kAmIwGce@g@kDYsBKs@OiAYqBMaACMMgAMo@U}Ba@sE[oEOyCUuFMmHCyC?{BFwI?GB_CDoBHyBHmBJcBJaBHiAL_BNiBRwBVqBR_BVmBJs@L}@f@}Cl@eDd@yBJi@Ja@Z{Ah@wBr@qCnBsG`AoC\\\\cAZy@\\\\{@Xq@l@{ATg@z@mBv@}ALY`@u@p@qApA{BjAmB`BmCbAcBfCcEbBsCh@_Av@sAvAyC`B_E`@kAVs@\\\\iAh@iB~@uDf@}BVyAb@cC`@sCJ_A^yDT_DPwDB}@D{ABwA@qA?{@?iAA_AA}@CwACmAE}@Cm@GuAIkAMuBiLegBw@qLwAuTWkEWyD}AwVKaBk@yIy@aMw@mLuAqTc@oGO{BgE_p@uDel@_@gGu@kL[qEUkDYyDQuCYcEa@sG_@uF]eFOiCW_ESkDKyAe@kHCu@mBsXI}@?MI_ASyBMeAMkAIm@_@gCSsA[kB[{Aa@qBaA}D]oAe@aBUs@a@qAe@sAu@qBaAcCeCoGoKwXwCsHc@kAeBsEi@qAkB{EeAsCcByEk@gBm@mBQm@{AeF_AcD_B}FYiAoAiFa@cBg@yBQy@EQ{@kE[cBQ}@i@_Ds@gEo@sDQcAc@yCOiAk@sEa@kDIq@Gs@Ec@a@{DO{AQ{B_@mEUoCQ{BMkBKgBSqDOeDMeD{@uYc@gNi@mQAq@}Ami@u@qUe@sPoAab@CwBKqDEqBEwBIeDKo@AEIuBMsEOcFSsGe@cO]yHE}@E{@]eGa@kGWuD{@uJYoCWcCe@eEYaCkBiOqAiKmCqTg@}DIq@mBiOi@cEYcCwAyLiBcOkCaTeBuNkBkOy@qGKy@yAgLYaCQqAaBeNiB{NKy@kB{O_CqRiC{SqCeUQyAs@}FqAoKcAiIwAoL{@_HcBgNo@iFqAeKmAcKaAyHwBgQ_A}HcBgNq@qFcAgIi@oEs@sFcAkIsBwPeAsIaB{M_Ee\\\\w@sGy@uGY_Cg@mDq@cFmAwIc@eDoEc\\\\mBiNmA}IiAoIgA_Iu@oFm@qEwByOsAsJS}AwAmKsF}`@E[E[mEw[iD{VaFq^cByL_@kCgAoIQmAsDiXoAeJgE_[oA_JeAuHaAkHsAuJ}@yG{@_Gw@iGeFa`@oBmNgCeR}AgLyLa}@SyAkCuRKq@cF{^eA_IqAkJcDkVeBeMoCaSuKcx@_CkQkAiHIg@WqBi@uD_AeHi@{DkB_NgCgRqDgXo@kEc@gD]gCi@{D_A{GqBaO}Ly}@_@iCyG{f@kAwIgQaqA_@wCe@mDa@_DM{@MkAYmCSuBU{BQ{BQyBIsAIeACc@?ICYM}BSqEYwG}Aq]_A}S_@yHWkFQwDCk@Ag@KqCScHO}FKsEEwAGyAK}CU_Fa@gJOkDWaGW_FUcEQkCQmCk@gIG{@Ew@C]G{AIiBWmFCm@AKGgAQgEE}@E}@SeF[iHc@kKi@cMc@qK_@{IO}CK{BIwAGeAMyAM}AIo@Gu@a@eDWgB]uB_A{FaAeGkAiHaBoK[yB]yB]qBiBcL}L_v@uEwY}@uFcDkSiIch@eAaHiAiHQqASqAcBoKuAeJgBeLyAsJ_@gCKy@K}@Iu@KcAEm@GaAEs@CeAE_B?g@?m@?{@@}@@{@@]@]Bu@FeAFy@HcAH}@Jy@L{@T{AFYJi@ZsAb@yBhAcFdAsEjBmIr@uCbBuHfA}E`@qB\\\\kBVyAZwBR_BNqAJaAP_BDo@Da@LaBHuADy@Ds@D{@DiADeABaAB}A@uA@gB?cA?mACsBC}ACcACmACk@MsCGmAKyAMyASiBgEsd@uB}TQmBOcBUiC[wC]}CU{Aa@sCSwAMq@_@yBo@wD_@qBSaAkB_Js@wCo@uCg@uBKc@Kc@kAaFSaAk@_C_AaEI_@[mAi@eC]sAOw@Qw@y@sD{BsJuAiFcAeDaA{CeBcFo@eBs@}Au@qAc@s@IM}AsCwAgC}AqCy@}A_@s@OYc@}@]{@k@wAi@}Ae@eBYiAUeAMs@QaAOiAOgAKeAIeAG_AEw@Ci@CaAC{@CyA?aCEkMGaP?yBCcF?eAC{AGgCGyAQ}BKaAMcAOmAg@gDYmBk@gDOo@Ke@c@cB[eA_@eAQk@o@}AkBgEgAcCsA_Dw@cBw@iBe@eAeAcC{AeDe@gAcA{Bq@{As@aBcAeC}@kCs@{By@qCq@mCe@qBaAqEc@oB_AgEm@sCcAqEq@aDoAuFS}@u@yD_B_I_AeFUsAk@iDKs@M{@U_BQwAYcCOuAOaBOoBQ_CQwCMwCKsBIqDCoAAg@A{BA{D?cABeDDuCH_DP}FJyCf@uNPcFLkDj@eOf@{Lh@oMTiFb@_LLcDVaGT}FH{AHoBJcBNuBNyANsAXyB\\\\sBXwA^aBTaATw@f@eBt@wBh@wA\\\\aAhEqLJYb@kA`@kAj@_Bf@qAVs@Rq@`@oARu@\\\\qANo@XsAPy@N{@Ly@ZqBPyAH{@JiAJqAJoADs@DaADuAB{@?a@BuA?}@?y@A{AAy@C_AEqAE_AIwAG{@KsAMwAG{@I{@Gy@MwAI{@KuAMwAWoDMyAMwAMwAOsB[qDsCw]o@aIcA}Lc@eFa@kF_AoLu@cJo@_IcA{LWaDWuC_@oDUcBy@yGaCgReAqIc@gD}@cHsAyK}@cHeBoNG_@WqBQuAo@eFaB}MIo@e@qDiAiJ[kCeAgIk@uE_@uCc@kDSaB[cCc@oDg@yDo@_Fw@uGs@wFq@mF_@{Co@}Eu@mGm@sEGg@g@}D}@gHg@aEc@_EQqBYuDO_CYuEGcAUuDM_COyBE}@KqAKkBOoCAQQkCg@yIm@wJGgAASs@{KUgEaAgPWeEYeFGaAc@eHK_BAOEg@c@oHg@eIk@oJaAsPu@aMcAwPGiAk@qJI}Ao@aKE{@_@{GWgEIqAGqAKcB]yFE_AYoEc@qHYyEa@uGk@kJc@cHYaFGy@s@_MIeA_@{EKoAs@kGOqAUwBQ{AOsAe@cEe@uE]aDg@mESmBSeBYkCSkBUkB]cD_@iDu@aHq@iGa@qDa@yD[sCYcCSmBW}BUuBg@oEc@gE]eDQ{Au@wG[{C]uCo@uFi@{EkEs`@sL{fAY}BWuB[oBm@}C{@aEEOa@_BOq@yBoJw@_DkB{G}@yCcAgDo@yBs@_Co@uBs@{B}@yCgAoDwEwOmHiVw@mCs@{BcAgDMc@w@iCq@yBk@kB]iAOk@k@iB_@mAc@wAg@eB_@mAwAwEiAwD}@yCs@}BUy@w@iC_A}CaA_Dw@iCe@_Bi@eBe@}A[eA]gAa@sA_@sA[cAg@qBQs@k@eC_@cBWyAYaBO_A]uBQgAWwAa@gCc@mC[gBy@gFy@cFs@gE{@iFk@kD}@}Ew@eD_@qAgAgDe@gAgA_Cq@oAu@oAIMU]iBaCaAeAs@u@y@y@c@c@{D{DuIwIuC}CsAkB{CiFcAmCwAsEg@_CeAqFoKik@oGa]mEaVmC{No@_EYaCg@eFe@wFIiAEmAIcDUyRMuIGqEEaDOmEGiAOeBYkCc@qCc@yBa@_Bc@}Ag@aBo@{A]{@g@aAy@}AiAiBkA_BoCmDwCuDuE}FwCuD_EeFq@{@eDeEaDcEc@m@u@_AeC_Da@g@cBwBsCmDwAgBqCkDkAaB_@m@q@qAmA}C]iAk@uBSu@SgAe@uCWmBO}AOyBQoDM}DWoGMaDk@cOUoFSoFM{C[{I_@oHSsCYiDs@aGqA}IM_AaAmGOaAqCiRsAkJuJeo@iB}K{@_Fw@{DkA}EaEuNw@qCmCgJeRcp@sE}OyA_Fa@wAe@aB]iAsAsEWy@q@iBi@yA}@uBqAqCqAcCoAuBaFaIeHcLeEaH_DcFkB}CaA{A_CcEwAgCoBcEgAqCq@iBi@aBwAsEuBuIg@wCo@{D_AuGkBsMmBwM}BwN_BsIqEyTcJ{c@YyAyDaRmAgG]yAc@cBe@cBc@yAa@qA[_AsByFcCqGg@_BkF_OkCyHoUgq@qBgG{@eDw@mEIa@Gg@Kq@E_@Gs@Iy@IkAE_AEs@I{CEcFAy@SqVEmEOoV?e@?m@?EAg@SgZq@}}@MeDIcBOqBOyAIk@o@iDq@oDg@cBkA_DsLsWsCsGsFwLWg@EI[o@uE_KmB}Do@cBkEeMqAkDAEQg@?AyAgEaDiJ{AoEcDqJc@mA}@aCm@aB]aAe@yAmGyQiA{CaCaHo@iBu@{BmDcK_C{GSm@uBgGyBqGqAqDmAcD_AcCmAcD{A{DuAmDoCgHmBeFiB{E_BiEqCmH{FgOqCiHm@}AeCyGyB{F{CeI{FgO_BcEuAqD}Ly[eIcTsDqJsAqDeFwMwByF_BgEk@{AiCyGqFsNy@yB{@_Cg@uAYaAg@aBU{@g@iBm@eCS_Ao@}CUoA]uBe@mCc@kC{@_Fs@gE_AyFwAuI]qBk@iDk@gDQeAw@sEWuA]sBg@wCg@_Da@aC[kBWaBe@mCm@oDc@aCc@kCYcBg@sCUyA]sB[mBUsA]sBe@iCu@qEc@mCy@yEk@gDk@kDk@eDe@mCuBgMc@iCe@qCq@cE}@gFeAqGs@eEk@eD{B}M{@iFgAoGm@qDoD_Tc@oCyAqIs@gEa@kC{@mFi@iDIk@EYmAmIyA}JoCcReDaUkA_I}AwKqA{IkA}HaBaLu@gF{@aGeAcH{CgSw@eFc@yC}AcKi@oDwAgJw@kFc@uCwAoJu@aF[mBuAmI}AmJgAyGeBeKy@eFgCwOWuA[oBc@mC]qB_A{FG]My@aA}F]sB_A}FUuAk@iDq@gEKg@QeAWsAMu@Ow@Oy@Mu@WuAe@kC]qBOw@Ow@]qB}@aF}CoQc@eCoAqHoAwHi@eDE]Kk@mCkPoAqHiAaHeCiOoCoPmAoHi@{C]sBa@iBEWg@{BaCcK_AsDi@oBg@_BuAoE_BcF]gAa@sAe@{AOg@}A{EeCeIUw@Yy@eF_PyD}LmCsIiBaGUu@W{@o@aCc@aBi@yBU_A_AgEYyAc@_Ca@wBy@uEYcBa@qCk@{D{@yF]}BeAyGoBsMcCkPyAuJq@yEmCsQaBqKqAwIc@wCkAwHgBsL{@yFiDmUcCmP_CsOaAuGqAyImBoM_BsKcA}G]wBq@{EiBuLaBwK{G}c@}AoKEQy@eGu@aFaAsGaA{G_AqGU_BMkAIq@MyAKiAM_BOcCGsAImBEwAAkAMaF?eGBcBF_CH}B@i@Bk@ZgFToCp@{Fb@_Dn@uDX{Av@sDrBgJxBgKhDyOZ{An@yDh@wD^aDP}AXaDRaDRaEHcEBeC@cCCaDAcAA_AEaBMgDK{BIgB]kEqBuXwAwRkAgPq@eJ_@cF]sE}Bk[IaA{K}{Ag@yHWeDWeD{AeSaCc\\\\k@aIk@cI_BgTkBcWuCia@q@gJ}@kL{H{fAGy@K_BM}AO{BcQacCqA}PCWkDgh@{AcSyLudBuFmv@aAeMyAcROkCyAqTsHkfA_MgfBqGmz@qAoQiAmPcBmUEg@cBwUoCk_@uCob@gEen@cPa{BmF{s@iAsNw@aKS{CYsDSqCWkDM_BQsCYmDYwDWiDk@kIYsD[kEO{A]qCIw@My@My@SsA]mBQ{@YuAa@kB[qAo@eCaA{De@mBGU{@gDe@kBo@eCg@mBe@kBe@kB[qASw@e@kBoCuKo@cC[qAUw@c@iBcA_Eo@eC[qA_BmGaC}IwAoF{@aDeA}Dq@cC[qAi@mBy@_DQu@]qAuAqFeA_Ey@aD_@{AqDoNI_@EOy@eDmAaF]uAQu@WqA_@qBSuAYsBOwAIy@G{@Gy@Eo@G_AGuAEgACyACyA?{A@yA@yAD{AFwADy@F}@PwBJwAH{@LyAHw@H_AFy@LwAHy@F{@NwAF{@LwAF{@B_@Fw@H{AFy@FyAD{@@_@Bw@FuDDiEA[AeEEsBE{AIcCMgCQuCOmBO{AQ_BOwAS}AW_B[qBq@mDiAsFe@{BgAoFoBoJ_AuEeA{E{DiRuHg_@Y{ASeAO}@YoB]eCQaBMkA]uDOuBO_CIoBI{BGwDCkCEmFWi[OeOKaOGgGK_NAgBE{DEwDEcCCsAG}BEwAGcAMiCQgDQgDOsCk@kKi@wK]uGcAwRk@wKMyBMkCc@gI]aH]qG]iHg@uJCe@Cc@OuCQ_EQcEMsEMoFMiHKsHQwJOiKSqLOiLMeJOsKIeHM_KOuKI}GQqKK{IMuIOqJIuEQ{KKgIIwFSeOKcIIeFI{FIgFIkFK_FMkHSmNYySOiK_@{WQcMKcGEmDMmIMmHYkOOaIOmICqBGsD?KEsC?KE{DIeFU{NIoGQuL?KGuEGqDGuFQqUImJEwEEsEImGEyBm@}b@?EGiDKoHEuCIsEWcMIoE[eNImEKuEOmHEsCGuBQoI]}Qa@sQSoJOqFYeLMgGE_B[}NWcM_@ySm@{ZKuFEeBCcB_@kR?YWkMCiAm@u^E{BKqCKuC[gHYmH_@cJ[kHe@aLWmGSoEQoE]iIQqEYoHMoDCwA?}@EoEAsEAsCCuEAwBA{A?wBAuC?uDAoE?oGAuFAkGCsECqFCoGAsDCqFCmHEkHEiICoHEeK?WCoHCyEC{CI_DMkEQkFUcGOaFQuE[gJUeGOoEIiCm@gQm@oQsAy_@{@cWM_HGgLG{U?}SCoc@Qoz@A}FEqOAwGC}GAcFAcFAaFAmFA}F?sAAkAGqBIsBQuBKkAMkAYoBIe@SgA}@qDWcAy@gCw@cCe@iBYiA_@mBYqBOkAW{CMsBGsBCkAAoA@mA@kA@{@Dw@JqBDg@NiBFi@^uCZaBVqA^{A|@_DRi@Ne@N_@p@{AlIiQrE}J^u@Ta@pBmEP_@jAcDZcARq@lAqFnAoFtBcJLg@bE{Qp@sCZuAf@uB~Iga@T_Ah@eCt@yCf@yBd@wBR_ALy@XgB`@qCR}AT{BPuBV_DJeBDc@HmA?GNqBRwDVmELwBH{AHuA^kH`@iHXuFPqCPyBXqC\\\\uC|@cGpA{HtC{OjC}NDWzAuIjBkKv@eEz@uE^qB\\\\sB~@mFd@oCTqARiAh@wC^yBRyALw@D]D_@F_@Hw@H{@J{@Hy@F_AH}@F}@HwADy@D}@D{@B_AB}@D}@b@oN\\\\gMZqK^mLBgABgAXoIJmCBuBAuBEgBGoBOwBEe@KeAUgBOeAIe@SgAYqA_@}AOk@So@]gAi@{Aa@eAo@yAw@mBsCwGuF}Mw@gB}@yBkAsC}AsDEMsByEeD{HgBeEM[Um@Wo@Us@Us@Oe@g@qBIa@Ou@Ie@_@_CmCuQiAwHGc@_@_CCQ]aC_@kCYqBYmBo@kEi@mD[sBg@kDo@gEg@kD{@iF_@kC_@}Bw@uFUwAUuAe@cDs@{EQkAkA_Ii@qDc@wCe@}C_@gCg@kDQmAc@sCa@qCIe@Im@U{ASqAQiAKy@a@kC]{BmAqI[qB{@uFy@{FoAmISuAUyAMy@My@Ow@Ow@Ou@Ou@Os@Qu@Qs@Qq@Su@Ss@Sq@Uu@Wu@_@mAeA{C}@aCYu@c@mAe@oAWs@Ys@Ws@i@wA]_Ae@kAWs@Wq@Wq@Wq@Wq@c@kA_@aA]}@c@kAc@iAYs@uAqDo@cBo@aB}@_Co@cBEKi@wAy@}B}@}Bc@iAWo@Yo@Yo@[m@[k@]k@]g@o@_A_@e@_@e@a@c@a@c@c@a@c@a@c@]e@_@e@]c@YmAs@mAu@oBgAaAm@mAu@y@g@{@g@y@m@w@m@a@_@e@c@]]UW[]W[]e@a@g@_@k@k@}@m@cAi@gAYk@[s@O_@Sg@Oa@So@w@qBc@kAe@oAsAsD{BkGiB_FgEiL{AsEeAsCIWM_@{CmI}@cC_CkGqAsDyFwOEMgIwTaBuEcCuGmA}CeAqCeAsC_@iAa@mA]kA]oA[oAc@iBc@qBe@cCi@gDa@sCUiBQ_BQiBo@sG{Fwm@eA}KuAsOcBoQiBiRaCyVwAsNc@gEc@sEYeDQsBMqBOwBMsBKwBMqCs@oQ}@uUM}HImF_@wIUaHM_DOsDIgBk@{Me@sJg@gNs@gT[wI]gJg@qLMuCGgB[kG[wHk@{NkAqZk@mNIuBEwBKoEQqMGqDGsDGkEGmFEuDGoCEwBEwAG{AEuAGyAWkFk@wLUkEi@{JQoDg@{Ki@wKa@cIYiFQoDUiEYiFMqCMuBOqDIuBUmFSkEOqDYiGYiGWkFSqDa@aIg@_J_@eHc@_J_AkRk@yKa@eIOoDMqD[aKOkFIuDi@mSk@{SCs@Cs@SeHOoEEwAE{@IuASsCMwAIw@SiBQ}ASsAa@oCc@iCG[_@mBk@eCYqAm@gCm@eCiAwEcBeHw@aDiAuEeBgHiCsKwB{IeBgHeBgHk@gCWuAk@oE_@kCQsAOwA]kDUoCk@aHwAgQmBuUgBwTkAsNg@gGo@eIw@{J_@oE]iEQsBYoDUsCUqCa@gFu@}IiAkNEo@SaCQwBKwAkBeUM}Ae@wFUwC[oDYmDOsBGs@IeAKuAI_AEy@IuAE_AGsAC_ACu@Ac@CsAAe@AwA?y@?{@?{@?mABgB@c@@u@B}@DqAF}ABy@D{@F}@Bg@@OF{@J{APuBPeBHy@Hm@BSL}@F]LaAHe@DWJe@n@gD\\\\mBToALw@L{@Ly@PyAPqBB_@BYDy@HwB@w@BaA@wB@{A@sCHuODkHDaJFaLDcE?oD?_A?}@CyAAy@C{@Cy@Ey@E_AKuAIcAEe@KeAGc@Io@Ec@QkAUsAUuA_@qBaAgFeJwg@}Miu@cBiJu@_Ee@iC]iBi@iCa@kBq@aDWqAk@eCeAwEu@}C[sAkAqESs@e@iBo@aCe@aBi@oBs@aC{AeF}AcFUu@qBwGsAoEsAmE{AcFqAmE_BkFaG_S}ByHo@uBy@oC_CyHkBkG_BiFuBcHaC{Hs@cCa@uAaJiZ[eAaDqKyBkH}@wCo@wBgAqDeByFqAkE{AaFeAmDs@_C{HsWaDsKiTat@qAqEg@iBi@qBi@_Cc@mBa@kBYsAYqAWsAg@kC]mBO}@i@gDYsBQqAYsB[mCi@_FU{B[kDc@}FMeCOwCKcBIiBKeDG_CEwAGsDCwBCsC?wC?oD@wBBsD@y@DyBFqCFsDTeKr@w]T}Jj@eYDwBDuB?wA?}@?iAAiBAyACsAK{CGwAKwBQeCSeCSwBAKSeBYwBi@{D_@qCg@oD_AyGg@mDs@_Fe@mDy@}Fy@wF]aCe@cDgF{^E]EUE]CUKs@y@cGq@{Eg@mD}@qGsB_OcAeH?Gm@qDg@cDs@gF_@kCc@qC_@oBa@mB_@sAe@cBa@sA_@gA[y@Yw@Yo@Yo@m@mAe@}@iEqH{BuDcCcEcCuEgAiBiAkBiAkBwAaCyAcC{@uAgAkByAeCwAaCuAaCiB{Cy@uAgAiBy@wA{@wAy@wAwAeC[m@e@cAc@{@_@{@c@cAc@iAc@iAa@iA_@kAa@oASs@]mAUy@YmA[qAa@oBi@kC[kBg@kCm@eDKm@Km@Mo@WwA]kB]kBWsAWuAa@iBUaA[gAMc@Og@Us@a@iAq@}Ae@eA[q@g@aA]k@_@m@wBiD{A_C{@oAm@_Am@}@}@uA{@qA{@sA{A_CkBsCiBqC}@sAi@aA{A}BiAgB}AaCyA{Bm@_A}@sAkAiB}@uA{@sAm@_A{@qA}@uAm@}@y@oAq@eA_AoAq@{@s@{@eAgAq@q@u@q@y@o@u@k@q@k@w@i@g@_@w@k@w@o@u@m@c@a@s@o@u@u@u@w@q@s@_@e@cAmAo@y@o@}@m@}@m@}@[i@QW[i@i@aA]o@[m@[m@Yo@Yk@Yo@q@}Aq@eBo@_B_A}Bq@aBgAqCc@iAcBeE_BaEiAuCkAsCUm@o@{AcAcC_AuBw@}AMU[m@i@aAMUMU]i@]k@kAeBw@eAyBqCiDyDwCgDeCsCqAyAuA_BsA}A_AgAc@e@u@u@a@a@QOw@o@w@m@iAs@{@c@UMc@SsAg@k@SQG}@UgB_@}D}@yHgBcH_BOEkDw@eFkAyFqA{D_A{D}@mA[uEgAuLwCsA[y@Si@Mk@O}@WSESGe@Oi@SgBq@e@S}@a@_Ae@e@Uq@_@o@a@[QgAu@eAw@}AkA_EyCmG}EgDgCmCqBoCuBmDmCqCsBgDgC}EqDwCyB{AkAyAiAkA{@{AiAkA}@YUkCoBoFcEoB{AwAgAWS{AkAKI_Au@kCqBaAu@cCmBeCkB_DcCyI{GaAs@_BmAiBuAi@a@aCiBmByAsAeAo@i@MKmBcBsCeCqCeCQQu@o@kBcBiBaBaDuCsCgC{BqByAqAu@q@iAcAa@_@w@q@yAsAkAiAaA_AkCoCuA{AgCsCuBcCaGwGoGiHqGiHkCyCq@u@uA{AeBqBaAgAeAkAiAsAo@q@_AeAwRsTcDyD]]eAkAqAyA{AcBiF_GSUkFeGgCoCkFgFoCsCw@w@wAuAyBkBuAuAwCyCoEsEy@y@gBiBs@u@mAoA_A}@u@w@a@c@kAmAqBqBwAwAo@q@UWOOgAgAyB{BsBuBW[YYUYQUW[MSIM]i@_@q@Yk@Yo@a@gAWu@Su@IYSw@G]GWG[OaAa@cD]sC_@qCo@eFiA}IaA}H]qCYuBqDyYs@sFi@kEUgBKs@uAeLWsBEa@I{@IeAEk@Ew@KgCEiACsCAyA@uBB{ADuANqCNwBPuBZoDp@eHrAsN~@}JHcAF{@F{@FcAFeBBcB?eA?q@CsACaAI{AIgAG_AKaASwAO_AMu@YuAQu@]oAe@{AsAaEqJmYwLk^{@eCs@oBaAiCg@mAs@_ByA_Dy@}A{@wAy@sA]i@q@aAo@}@o@{@q@s@c@c@c@a@y@o@y@i@w@a@]O[Kk@Qe@MaAQaAKy@Em@Ay@@q@BuCHaELcELqUx@sCJqIVsELmBBsA?yACaAE{@GuAKuAQmAQgASsAYiBa@sAa@qAa@uAi@mAg@{@_@iCsAmAs@s@c@k@a@aAq@m@e@y@q@s@m@u@s@iAeAcBkBeAmAoAaB_AuAe@u@e@u@sBqDqC_Fy@{A_D{FmHwM}N{W}K_SuF}JyDaHcB}CyAeC{@uAm@{@_AsAq@{@a@g@qA{AwA{AeAeAoBeBw@o@wAgA}@k@mBiAyBmAg@UoAk@{@_@iLkEyIgDiNkFyBy@s@Yq@YyB}@k@Ya@SmAs@YSYQ}@q@iA}@u@q@gAgAuBcCq@y@oEyFs@aAo@}@k@_Am@gAu@yAaAuBe@gAg@sA}AcEy@}BgAwCcGaPiBaFaAeCcJwVsD{JuC}H}@cCgB{E{@sBoAmCsAiCiAqBq@gAoAmBEEAAQSa@c@e@k@oAsBcBgCkAiBk@w@[c@kKePIMe@q@S[e@u@Wc@{BmDaDqEQYQWkAeBeA_B{@qAQYq@gAcD_F_B_CyBaDe@o@_AsAoAmBWa@Yc@u@kAuB_DoAqB_@k@a@i@oBaDiDqFuB_DOQaBaC_G}Iu@oAwHiLw@gAEGi@s@mBwCcA}AoAuBgBiCaBeCsAmBs@iAyAcC}BeEgAuBgAuBuAmCsFuKoAaCmBwDeIyOsEaJqIkPsCuF_@u@}CaGcDmGyAwCs@sAgAqBuAoCmBsDaAiBsAgCuAkCuAoCwAoCsAkCgB_DWa@q@gAyAuB_@g@}@iAeAqAi@m@i@i@s@u@wAsAkB_B}AsAiAaAmBaBwDcDkBaBs@o@{A{AsAyAcC{C}A{BqAqBgBqCm@cAwA{BgCcEaA{AqBcDoAoBwAaC{AaCkAiB{AcCq@eA[i@MS{BoD{EuHMSm@aAQU]k@{@sAm@aAk@}@mAmBu@mAq@eAeIsMoD}EcN{PwGkIsAcBmDmEmA{As@}@mA}AcAoA_AmAq@}@Y]mBeCoAaBu@aAw@eAiAuAqAcB}@gAo@w@kMcPiCaD_c@si@kL}NmBaCqCkDuCqDsAaBeEkFkEqFaBsBy@eAy_@af@iCaDsCqDgHaJaFiGeAsA_LqN{CyDcBwBcBwB_AkAgFsG_AkAgLyNgEmFeJgLuAgBoA}AoA}AaAoAaAkAsDwEgJmLq@{@oJuLgCcDgAuAqA}Aa@k@o@w@q@y@q@{@m@w@sAcBq@{@q@y@_@g@q@y@o@{@s@}@[c@SW[c@OU_@i@[g@i@}@Q[k@aA[m@i@cA]q@Yk@Ym@g@kAWo@e@mAWq@Um@Yw@Us@Sm@Ww@]mAUw@I]YgA]wAYmAWqAYyA]kBa@mC]uBYoB[sBc@oC[mBSwAMu@U{AYkBUyA[kBU{AKu@UyASqAUyA[mBSuA[qBc@oC[sBa@mC[oB[sB[sBWsAUoAQy@YqA[uASw@YkAi@iB_@oAQg@Mc@c@oAc@kA[y@Yu@Se@Yo@c@eA[o@]q@[m@[m@[m@i@_Ak@aAaBoCgKaQo@eAoEuHaJiOiGiKgB{CmDaGwBoDcCeEyAeCwBoDk@cAk@aAgByCsBgDqBgDoEqHU_@EGYg@{AeCgKoQqDgG\"},\"duration\":{\"value\":\"10267\",\"text\":\"2 hours 51 mins\"},\"html_instructions\":\"Merge onto <b>ON-401 E</b>\",\"distance\":{\"value\":\"318830\",\"text\":\"319 km\"},\"maneuver\":\"merge\"},{\"travel_mode\":\"DRIVING\",\"start_location\":{\"lat\":\"44.7393229\",\"lng\":\"-75.5006680\"},\"end_location\":{\"lat\":\"45.2083667\",\"lng\":\"-74.3482841\"},\"polyline\":{\"points\":\"wcapGdfykMeFsIsZch@sMuTuBoD}CkFqJaP]o@gTm^QYQYm@eA[q@eBwCmDyFEIkCqEgAkBuA}Bq@oAwDoGeCgEiDuFgAaBmBoCmB{BwA}AiBiBqC_Cu@m@s@g@_Ao@}@k@aAi@y@c@[OkEwBaCkAkCoAs@[aBy@wBeA{E_CiCoAuBeAoAm@aCkAsCsAkB{@_Ae@sAq@}@e@_Ag@}@i@{@m@cBmAoAcAe@a@g@c@{@w@y@u@g@g@w@{@w@}@mA{Aw@eAo@}@g@y@k@_AeA}AaAqBkAuBw@yAaByCwAkCeCuEsByDiBgDqBsDqAaC{AqCiC}EoBqDaIyNcKkR{Pq[sOoYwMoVkDsGuEuI{Yyi@kDqGaG{KoCcF{GgM}LeUm@kAIOk@cAaB_DiAsBcAmB_@m@gBmDsD_HoBqDuByDaAiBm@gAqAcCm@iAc@y@iAyBgBeDmCcFcB}CsAeCq@oAq@qAmAyBg@_AsAaCcCsEwDeHq@oAq@mAo@oAqBuDsBwDqA_CoA_C_DaGqBsDaB}CU_@kAaCsB}DqAcCqBuDqCkFwFeKsFeK_DaGmCcF{EcJ_CmEaD_GaDaGaJwPcCuEgCwEiDoGQYgCyEcAmBs@sAoVqd@uB}Dq@qAq@oAq@qAgCwEuAgCs@qAcIgO}BiE{FmK_@q@_@q@_@s@s@sA_@s@i@cACEeE{HaFiJSc@oF_KgAwBw@_Bu@}AM[mBmE]{@o@wAy@sBq@_B}@wBQa@m@wA}@wBo@}Ac@gAw@mB_@{@gAkCaAaCaA_CeBgEiAqCmAuCwh@ipAc@gA?Aw@kBcSif@_`A}}BgDeIaC_G_CyFeBeEwAoDoA}DiA}DcZajAUy@oQwq@mKea@gRcm@aOyc@uFkQsJcZcG{RgHuTySgq@qHgVsJm[oG_Ts@}BqGkSsR_n@oNqd@gEkN{Ku\\\\qBgGwG_S_EsLy@gC}AqEwCwIsA_EsAaEwCwIeFkOoF}OgEkMwBgHqGgTkKc^qGuTgA{DoFoQ_A}C}F_SqByGeCoIcCmIcH{UkI_YmDwLyH{WcLk`@sEmOyA_FsBcHuDeMaCiI_Ke]eB{Fu@qCcAaDoH}Vc@sAo@eBYq@Wg@]q@_@q@]q@w@oASYY_@q@{@k@q@y@y@eAaASQMK[UWQc@[YQ]Qc@Wa@QaAc@_@O]MsA][I}A[}Ew@}`@iGaAQc@Ia@Ia@IYGiA]e@O[MqAk@{@c@c@Y{@k@_@WWS_A{@c@c@]]c@e@[e@u@aAi@w@Ye@S]_@q@i@kAc@aAYu@[_AWy@Y{@sAmEmBmGuMyc@eCkImPuj@IWa^ulAsDcM_DmKuBcHoAcEsDeMs@eCy@gCu@iCm@qBs@cCi@iBi@gBy@sCk@iBs@aCyA_Fe@_Bu@iCoFuQmBsGoBwGqAmEaCcI_C_IuA{EaA_DuBiHeAiDuAwEeBuFmA}DcAeDqAiE_C{HcAoDs@gCaBuF}@}CgA{Dy@{C}AoFq@}BK_@Ss@{CcK_BqFM_@]qAgAoDm@wBcAgDoAeEe@_Bo@sBmAgEwAaFy@uCmAiEiAuDgAuDiAaEqAoEcAiDkBqGkAyD{@yCgAqDiAyD]iA]iAu@eC{ByHiHiViBiGuA}EqByG_BmFgBcGkBkGeFeQiC{I{BuH{CcKiCuI{AcF{AaFgB{Fq@}BcByFsBwGmBwGoDwLaGcSeFaQyAaFeH_V_EeNs@cC{GgUgAqDcCkIyAaFqCoJiBqGaBoGqGuWwA}F{@aDwEiRU{@Mk@mCuK{DuOiCeK{AeGoBkIkLod@mDgOyEmRyFsToKsb@?AaC{Jw@_Dq@kCmCsK_DiM{FcVm@oCMs@Mo@WwAw@aFa@sCg@oD}AwKgFs^qBgNm@gEy@eGaAgHoAeJ{AmKgAuHOqAS_BOaBOqAQmBMkBKcBIoBGsBEqB?mA@oA@uBDgCFwBFaBBe@HoAFcAHcALqAP{ANqA^sCRqANy@Hg@VmA^aBVeAj@qBz@wCnIqYzEaPpJc\\\\|B{H^sAbEcN|A{FBEFYrG_UzCiL|@}Ct@oC`AaEt@_Dr@iDp@gDn@gDj@iDv@gFl@iEh@mE^oDXsCZqD\\\\kERwCLqBFqAHwANaEJuCJsENoGRiJ^mOPcINyFN}GTuJZ}MVuKb@sQPiIHsDBcB@aA?mAAwCCwBOkJMgKG_DAsACuAKeGOmJMmHKmGMuHKiGAqAKyFKcGEcCKoHMkIKqHG{CCoAImFEaBGyAU_FAUG}@g@kFa@sDWqBKo@SsAOy@WuAOw@WsAe@qBm@eCYeAw@kCeAkDu@gC_BgFyAaFyA{E{BqHqAiEmAaEsAmEeB{FoAgEs@cCmFgQ}BuHiAyDi@oB[qAa@oBWuAMy@Kq@U}AOwAOyAKwAG{@G}@GyAE{ACwACaB?EGmFEiEYk\\\\U}SAw@EgFM_NCcEEyEUsRg@gh@C_DQwNOgNCeBGqBI{AMiBWwC]eD_AeJkAsL_AcJq@qGImAMmAu@yHmAiL?AgAaLo@wG_@yD]{COiAOcAk@wCi@{Bs@kCk@gB}AgFuFuQkGwSsCkJoMqb@s@}BoCiJkBwFqLm`@qAeEeQal@_HeUcFwPq@yB[cAiB}FcAgD_@sAgAoDq@yBc@{AQg@qGiTmAeE{@sCo@wB[}@oAcEm@mBs@sBYq@c@kAk@uAeAuBu@gB_F{LkAwCqA}CyAuDoJ{UkCqG_C_GoB_FqHaR_C{FsCgHuCiH}B{F}ByFoB}E_C}FoB_FwAoDiAsC}BwFa@gAw@wB}@{B{BwFkAsCiAsCwAmD}@{BuAmD}CcIsAoDy@_CyJiXyJkXKYqAmD{AgEuB}F_BmE{AiE_BkEeAuCeAuCo@eBcAuC}@cCa@iAy@}BgAyCeAuC{@_Cy@{By@_C{@_CeKeYWs@eB_FiBcFqD}J_CuGiBaFaCwGgAwCoAmDiBeFwIgV_BqEaC{GqAqDcFgNIW_AiCISoCqHiGyPgHwRm@aBo@eBo@cBc@kAe@gAYq@g@gAYm@{@cBcAiB}@wAk@aA]g@_@i@[e@a@i@q@}@_@c@q@{@s@{@eD{DsLoNcBoBaAkAaAkAaAmAs@{@o@{@o@{@o@_Ag@w@c@u@e@u@w@wAaAkBu@}Aw@kBcAkCYw@s@qBc@wAu@cCIUsQsl@iAsDq@}Bc@sAs@cCW{@}@{Cq@_C{@uCmBsG_BsF_@qAw@mC_CgIgDiL_A_DsAwEiAwD_BwFo@wBiAyDu@cCs@eCk@mBs@cCe@}Ac@yAq@aCk@mBu@eC]oAm@wBm@qB_@kAW_A}@}C_@qAk@iB]oA{@uC_AcDs@cCgBgGsCwJqAoE}BaIsAuEqAoEkLw`@wAaFsBeHqAsE}AoFsAsE{AoFiBiGqAuEsAuEgBiGwEiPgC}IoDeMgBiGs@eC_BcG}@gDcBoGaG{TwBeIuBaImFgS_DmLwBeIq@eCg@iBWw@Uo@Qc@Sc@Ym@Sa@Uc@Wa@U]U[Y_@]c@c@e@e@c@a@]USYQ[Ue@Y{Ay@gB_A}C_BkCuAqAq@KESMeB}@aB}@oAq@e@[e@]c@]e@a@q@w@QUQU]e@MSIKa@u@]o@Q_@Ug@Qa@Si@gAsC}@_Cy@wBoFqNkCaH}DiKcCsGaBiEsAmDM[cCqGy@wBeBoEkBaF_BeEsCmH_CgGqBmFeCsG_BcEACiAwCc@kAWq@eCsGqCkHcCsGiAsCiCoGWk@[q@e@cA\"},\"duration\":{\"value\":\"3604\",\"text\":\"1 hour 0 mins\"},\"html_instructions\":\"Keep <b>left</b> at the fork to stay on <b>ON-401 E</b>\",\"distance\":{\"value\":\"108806\",\"text\":\"109 km\"},\"maneuver\":\"fork-left\"},{\"travel_mode\":\"DRIVING\",\"start_location\":{\"lat\":\"45.2083667\",\"lng\":\"-74.3482841\"},\"end_location\":{\"lat\":\"45.3501915\",\"lng\":\"-74.0641189\"},\"polyline\":{\"points\":\"iw|rGvcxdMqC_GqAoCe@aA{AeDACsAqCmDoHwGmNcHcOcEsIu@aB_AqBaBkDwBsEsBkEUe@iB{DoAgCk@mAs@sAw@_BqAkC_AgB{@kBO_@O_@Wo@a@oAM_@I[IWK_@EQU{@WoAWwAa@{BUsA_@}BcGu^k@gDyAoIaGg]aBoJY}Ak@yCa@sB_@cBc@gB_@sA_@qAg@eBk@cBOg@Sg@e@mAy@qBo@}Aq@_Be@kA{@qB]y@mAwCg@kAmAyCaP_`@}@sBs@eBo@}Aq@_B{@uByAmDyDeJ]}@aBgEyCaIaFsMkCeHkCcHiDcJw@qBkCcHwB{FoCcHeBwEuCyHcCoGaCqG}AaEe@mAiCcHmCiHeDoIcA_CmAsCeK}SaC}E}B{EqCuFwBoEKWaAwBUe@uAaDcAgC}@aCk@}AeA}Cu@{Bs@}BYw@sN{c@c^yhAc@sA}@qCqA_EcAcDyB}Gu@_Ci@aBc@kAw@oBSe@Uk@y@gBcBeDi@aAs@mA_@o@e@w@e@s@a@k@]e@a@i@aAmAa@i@cC_De@m@MOiIwJ_d@sj@kAwA_O_RQUsNiQ[a@}BsCup@uy@sDqEuC}DY[W]sCmDkBcCc@m@kBkCiC{Dk@{@uAuBcA}AoEaHyBeDiBuCs@eAw@mAgBqCiDoFy@oAu@qAk@cAk@cA}@iB{@kBcAeCg@qAsEwMgJqXuIeW_B{E}AuEqGiRoDsKw@kC]eAm@oBqAeEgB{FiAsDcL{^{Sqq@}E_PyLi`@Mc@{A}EuMwb@iAmDm@sBaAyCiB_GiGiS}DiMaDiKgB}FwBcHeBwFyBeHMa@a@oA}Qam@iEgNu@eCuAqEoDiL_BkFUs@GQoQ{k@_AwCoBoGqPwi@sG}S}C}Ja@iA_BaFmA{DaAsCKYsDqLuAsE\"},\"duration\":{\"value\":\"954\",\"text\":\"16 mins\"},\"html_instructions\":\"Continue onto <b>Autoroute 20</b><div style=\\\"font-size:0.9em\\\">Entering Quebec</div>\",\"distance\":{\"value\":\"27512\",\"text\":\"27.5 km\"}},{\"travel_mode\":\"DRIVING\",\"start_location\":{\"lat\":\"45.3501915\",\"lng\":\"-74.0641189\"},\"end_location\":{\"lat\":\"45.3611844\",\"lng\":\"-74.0479834\"},\"polyline\":{\"points\":\"umxsGvs`cMEk@?EAEe@eBm@wBeDcMs@iCKYy@qCi@_BsA_EyA_E{A_E_@gAK_@K_@UgAMs@MeAIeAI]ACAQC_@A_@Ak@?cA@cADcB@aA@k@?g@Ac@Ce@Cm@Cc@Gm@Ii@E_@I]Kk@Qm@Og@Sg@O_@O]IO_@m@Wa@Y[]_@YWYU]U_@Sk@Wo@So@Mk@Ge@A]?S?_@B_@D_@Fa@Jm@RwB~@}@\\\\c@La@LUHQDc@Ji@LcAPaAPKBEB_@T\"},\"duration\":{\"value\":\"80\",\"text\":\"1 min\"},\"html_instructions\":\"Take exit <b>29</b> toward <b>L'aéroport international Montréal-Mirabel</b>/<b>Autoroute 40</b>/<b>Ottawa</b>/<b>Gatineau</b>/<b>Montréal</b>\",\"distance\":{\"value\":\"2129\",\"text\":\"2.1 km\"},\"maneuver\":\"ramp-right\"},{\"travel_mode\":\"DRIVING\",\"start_location\":{\"lat\":\"45.3611844\",\"lng\":\"-74.0479834\"},\"end_location\":{\"lat\":\"45.3927268\",\"lng\":\"-74.0595186\"},\"polyline\":{\"points\":\"krzsGzn}bMa@Ho@Ho@LgAPwCl@yCp@cAR_@JuA^s@RiCt@g@Lg@L{@Tw@Pg@HyLfDwCv@}Bl@}Ab@yCx@wDbA_D|@aAVsA`@}Bn@mVrG[J]HYHkA\\\\C?y[zI}Cx@kVvGmA\\\\mA\\\\aCn@YHkL|CwBj@\"},\"duration\":{\"value\":\"126\",\"text\":\"2 mins\"},\"html_instructions\":\"Merge onto <b>Autoroute 30</b>\",\"distance\":{\"value\":\"3622\",\"text\":\"3.6 km\"},\"maneuver\":\"merge\"},{\"travel_mode\":\"DRIVING\",\"start_location\":{\"lat\":\"45.3927268\",\"lng\":\"-74.0595186\"},\"end_location\":{\"lat\":\"45.4004768\",\"lng\":\"-74.0567087\"},\"polyline\":{\"points\":\"qw`tG~v_cMiCt@mA\\\\qB`@]DG@_@Dw@Dc@B_@?s@Am@Cu@Eu@Km@Mg@KeAYm@So@WqAo@aAo@WS]W_@[YWs@s@]a@a@i@}@oAU_@[k@q@mA_@]\"},\"duration\":{\"value\":\"35\",\"text\":\"1 min\"},\"html_instructions\":\"Take the exit on the <b>left</b> toward <b>Autoroute 40 E</b>/<b>Montréal</b>\",\"distance\":{\"value\":\"952\",\"text\":\"1.0 km\"},\"maneuver\":\"ramp-left\"},{\"travel_mode\":\"DRIVING\",\"start_location\":{\"lat\":\"45.4004768\",\"lng\":\"-74.0567087\"},\"end_location\":{\"lat\":\"45.5011632\",\"lng\":\"-73.6689024\"},\"polyline\":{\"points\":\"_hbtGle_cMiBgFWw@EKISIScb@yfAwQme@_@aAuAwDm@aBwE}LqBeF_DkIk@}Ae@sA_@eA}@wCk@}B}@{Dq@oDWyA[qBQqAWoBMqAYwCo@cJg@wGg@wG{AiS_@eF]sEeAeMUyBe@mEa@kF_AmK_@iFWcDU_D[wD]qEa@oFMeCIyASgEMoDSkFQoFQgEScFUgGYyHWsGUoGUeG[cIMyDOmDSmFOmEYyHi@aNMuD[sIIsBQwEMcDGuBImBGyAC_AEgAE}@EmAEiAQyEIwBCe@?a@Ay@AcB@kBFoBHsCZaIVqH|@aXLeDDeALuD\\\\{Id@yMXwINsD^eLRkF`@cLb@mMJuCJcDHqBDmAFwABaB@e@@cAA{@AuBCu@Cs@E}@Cg@Gy@Ei@Gk@I}@Go@M{@YmBSeAWoAOk@YeASw@Oe@Oe@]_Ao@_B]y@Ui@{@oBmAoC_BqDs@aBa@{@yAiDeKwUg@oAm@uA}@qB}AmDaAyBqCmGKU{Uqi@aCsFgC}FiAmCiAkCmAaD_AqCc@sAYaAi@sBk@uBa@mBo@sCw@eEo@iDGYg@sCc@qC[uBe@iDWcBqAuJk@sDk@iDw@aEgAeFk@mCk@eCgAgESy@c@}Ag@eBo@wBq@wBkAoDq@mB}@aC}BeGcBiEeAsCmA_DgA{CqAeDaDeIiE}K}Ni_@iByEeD{IgBiE{ByFwBsFcGuO]_A_@gAg@_B[iA[mAWeAKg@Kg@Q_AQaAOcAM{@Mw@OmAkCqSwD_Zg@qDeDmWo@mECKO_ASaAs@qD_@wAMk@Ok@Qi@a@qASk@[aAo@eB[}@]}@Yq@cAeCyCoHuBgFoA}Cs@cBgCoGcH_QgFiM}Nk^aO{^_B_EqA{CwAiDeAkCeHoQ_FwLcAuCgB}EcCmGyIqUeAqCuDuJ{CcIsE}LKW}BaG}CeIwQse@uGaQyE_Me@sA_@kAe@}AoAoEOk@YiAWmA]gB]kB_@eCYoBY_CU_CUuCMeBImAGsAIoBGsACgAKqEOoGWiIQ{G]}N?E{@m]a@yOCmAOuFQuIGcDAqCAoD@uEFsHLcGPmITqJf@eSZuMF_CHsDR}H?An@cXFgDFiBToKJqEBaAZcM\\\\wOJ}F?A\\\\qMFkE@cAAsAAcBCaAC_AK}BKgBGs@ScCQwA]cC]wBa@wBc@kBkAmF_BqHmAyFoAyFi@_CgAeFkAoFuBuJiAcFu@yDi@sC?AW{A_@iC[wCUeCO}BKsBI{EC}@A_AEgCIcGI}FEaCGeDMmGEgDI_CCc@CUCe@Ee@ASKcAMeAGa@Ii@WyAS}@Qy@Og@Oi@Oc@K_@Oc@Qe@MWOa@Q_@Sc@Q[g@aAm@_A{@iAc@m@KOKQQUQWgAwAqAiB}DqFmAaBc@m@mA}AoBoCg@w@\"},\"duration\":{\"value\":\"1209\",\"text\":\"20 mins\"},\"html_instructions\":\"Merge onto <b>Route Transcanadienne E</b>/<b>Autoroute 40 E</b>\",\"distance\":{\"value\":\"33525\",\"text\":\"33.5 km\"},\"maneuver\":\"merge\"},{\"travel_mode\":\"DRIVING\",\"start_location\":{\"lat\":\"45.5011632\",\"lng\":\"-73.6689024\"},\"end_location\":{\"lat\":\"45.5017343\",\"lng\":\"-73.6638681\"},\"polyline\":{\"points\":\"g}utGrms`Ma@_@CAAACEEEMQSYSYYa@Y_@QUOWQYMYMYIYK_@I]Ga@E_@Ea@Aa@Aa@?cA?w@@Q?KBKBOD[H[FSFOFQHKHMHKHKBCFKv@w@FIJQ\"},\"duration\":{\"value\":\"33\",\"text\":\"1 min\"},\"html_instructions\":\"Take the <b>Autoroute 15 S</b> exit on the <b>left</b> toward <b>Autoroute 10</b>/<b>Montréal</b>/<b>Centre-Ville</b>/<b>Pont Champlain</b>\",\"distance\":{\"value\":\"497\",\"text\":\"0.5 km\"},\"maneuver\":\"ramp-left\"},{\"travel_mode\":\"DRIVING\",\"start_location\":{\"lat\":\"45.5017343\",\"lng\":\"-73.6638681\"},\"end_location\":{\"lat\":\"45.4726889\",\"lng\":\"-73.6099036\"},\"polyline\":{\"points\":\"y`vtGdnr`MLMx@u@j@g@^]l@q@Z_@PORWV]|@kAv@gAT_@Xa@t@oAvAeCtBcEbDaGbHkMbAkBvDcH`@u@`@y@Vc@Zq@^u@Zu@Vo@Rg@Ri@Xy@^iA`@qAb@wAx@oC`AyCb@uAjDyK~AuEhBkFhBoF~@mChAeDlAoDtBkGz@eC?An@gBvBoGdDmJzAkEnAqDfA_DrAaEnB}FpFyOjD{JtBkGr@sBNg@L[L_@\\\\w@Ti@Xo@P]R]b@s@`@i@PUVW\\\\]h@i@d@a@tAgAz@q@^[`@]JMb@e@`AmA\\\\i@p@iAv@yAtAqCZq@PY@Cl@mAvAwCd@eARg@l@}Aj@}Av@}BfBeFv@{BXw@lBcFL_@\"},\"duration\":{\"value\":\"267\",\"text\":\"4 mins\"},\"html_instructions\":\"Continue onto <b>Autoroute 15 S</b>\",\"distance\":{\"value\":\"5349\",\"text\":\"5.3 km\"}},{\"travel_mode\":\"DRIVING\",\"start_location\":{\"lat\":\"45.4726889\",\"lng\":\"-73.6099036\"},\"end_location\":{\"lat\":\"45.4796572\",\"lng\":\"-73.5914502\"},\"polyline\":{\"points\":\"ikptGz|g`M?a@@ALa@`@kAh@yAl@mBp@kBr@wBBGlF}OPk@Vw@Z_ATu@P}@P_ALwAHuABwA?}@AaAOsAAKOeAc@kBc@wAY}@[s@o@}@MQQSk@o@_@c@]]w@o@qBsAIGa@Ke@G_@Ee@G[GSG_@Ig@QgDiAqDgA_AScD}@kBu@_BaAkA_A{@w@y@y@w@cA{@qAyAqC_@q@_@s@\"},\"duration\":{\"value\":\"138\",\"text\":\"2 mins\"},\"html_instructions\":\"Take exit <b>63E</b> on the <b>left</b> to merge onto <b>Autoroute Ville-Marie</b>/<b>Autoroute 720 E</b> toward <b>Centre Ville</b>\",\"distance\":{\"value\":\"2223\",\"text\":\"2.2 km\"},\"maneuver\":\"ramp-left\"},{\"travel_mode\":\"DRIVING\",\"start_location\":{\"lat\":\"45.4796572\",\"lng\":\"-73.5914502\"},\"end_location\":{\"lat\":\"45.4910209\",\"lng\":\"-73.5747258\"},\"polyline\":{\"points\":\"{vqtGpid`Mm@g@iBsCcCmE}Rc^IQIQq@qAa@y@o@oAy@_B_BqCmA}BOYIOGKS]aBwCq@mAq@iAaA_Bm@aAoAkBmBuC_@g@]e@sAiBiGqI\"},\"duration\":{\"value\":\"88\",\"text\":\"1 min\"},\"html_instructions\":\"Keep <b>left</b> to continue on <b>Autoroute 720 E</b>\",\"distance\":{\"value\":\"1818\",\"text\":\"1.8 km\"},\"maneuver\":\"keep-left\"},{\"travel_mode\":\"DRIVING\",\"start_location\":{\"lat\":\"45.4910209\",\"lng\":\"-73.5747258\"},\"end_location\":{\"lat\":\"45.4958139\",\"lng\":\"-73.5669359\"},\"polyline\":{\"points\":\"{}stG`aa`MA[A??AMY_AwAiEgGa@s@}@aBs@yAWo@_@sA[qAGUs@sBUu@YeAcBcHK]IMUUSOIEMIUE[@QAO?IAGAEACAGEGEEEKK\"},\"duration\":{\"value\":\"75\",\"text\":\"1 min\"},\"html_instructions\":\"Take exit <b>4</b> toward <b>Rue de la Montagne N</b>/<b>Rue Saint-Jacques</b>\",\"distance\":{\"value\":\"841\",\"text\":\"0.8 km\"},\"maneuver\":\"ramp-right\"},{\"travel_mode\":\"DRIVING\",\"start_location\":{\"lat\":\"45.4958139\",\"lng\":\"-73.5669359\"},\"end_location\":{\"lat\":\"45.4961802\",\"lng\":\"-73.5675859\"},\"polyline\":{\"points\":\"y{ttGjp_`Mw@xAQf@\"},\"duration\":{\"value\":\"13\",\"text\":\"1 min\"},\"html_instructions\":\"Turn <b>left</b> onto <b>Rue Jean d'Estrées</b>\",\"distance\":{\"value\":\"65\",\"text\":\"65 m\"},\"maneuver\":\"turn-left\"},{\"travel_mode\":\"DRIVING\",\"start_location\":{\"lat\":\"45.4961802\",\"lng\":\"-73.5675859\"},\"end_location\":{\"lat\":\"45.4982235\",\"lng\":\"-73.5651801\"},\"polyline\":{\"points\":\"c~ttGlt_`M_AoAaAoAKKYQgB_CgAwA_AkA\"},\"duration\":{\"value\":\"67\",\"text\":\"1 min\"},\"html_instructions\":\"Turn <b>right</b> onto <b>Rue Saint-Antoine O</b>\",\"distance\":{\"value\":\"295\",\"text\":\"0.3 km\"},\"maneuver\":\"turn-right\"},{\"travel_mode\":\"DRIVING\",\"start_location\":{\"lat\":\"45.4982235\",\"lng\":\"-73.5651801\"},\"end_location\":{\"lat\":\"45.5000690\",\"lng\":\"-73.5689619\"},\"polyline\":{\"points\":\"{jutGje_`MIPM^_B~DUj@GRmB~E}A`EO^\"},\"duration\":{\"value\":\"104\",\"text\":\"2 mins\"},\"html_instructions\":\"Turn <b>left</b> onto <b>Rue Mansfield</b>\",\"distance\":{\"value\":\"359\",\"text\":\"0.4 km\"},\"maneuver\":\"turn-left\"},{\"travel_mode\":\"DRIVING\",\"start_location\":{\"lat\":\"45.5000690\",\"lng\":\"-73.5689619\"},\"end_location\":{\"lat\":\"45.5018118\",\"lng\":\"-73.5673445\"},\"polyline\":{\"points\":\"mvutG~|_`MuBoBiAaA{CqC\"},\"duration\":{\"value\":\"64\",\"text\":\"1 min\"},\"html_instructions\":\"Turn <b>right</b> onto <b>Boulevard René-Lévesque O</b>\",\"distance\":{\"value\":\"231\",\"text\":\"0.2 km\"},\"maneuver\":\"turn-right\"},{\"travel_mode\":\"DRIVING\",\"start_location\":{\"lat\":\"45.5018118\",\"lng\":\"-73.5673445\"},\"end_location\":{\"lat\":\"45.5017123\",\"lng\":\"-73.5672184\"},\"polyline\":{\"points\":\"iavtGzr_`MRW\"},\"duration\":{\"value\":\"13\",\"text\":\"1 min\"},\"html_instructions\":\"Turn <b>right</b> onto <b>Boulevard Robert-Bourassa</b>\",\"distance\":{\"value\":\"15\",\"text\":\"15 m\"},\"maneuver\":\"turn-right\"}],\"duration\":{\"value\":\"19096\",\"text\":\"5 hours 18 mins\"},\"distance\":{\"value\":\"547015\",\"text\":\"547 km\"},\"start_location\":{\"lat\":\"43.6533096\",\"lng\":\"-79.3827656\"},\"end_location\":{\"lat\":\"45.5017123\",\"lng\":\"-73.5672184\"},\"start_address\":\"Toronto, ON, Canada\",\"end_address\":\"Montreal, QC, Canada\"},\"copyrights\":\"Map data ©2017 Google\",\"overview_polyline\":{\"points\":\"e`miGhmocNiI`CeFmHaAmIgDai@mNiw@qJqq@sKgEq~@x_@cr@vI}d@oIg[ePa`@ax@kC_w@mV}h@af@iPa]y_@mq@xZehFje@{r@jCeDgf@}AgfBs]kiCmrAkuJog@gxAo\\\\o|DoIm_CdX_{A_Gcb@ad@aw@mnB_pDe_D}rIcnBa_NmRuyBvBcmBnAydC_{Bu_Oe@ktBdt@qiBhL}w@eSylD}i@coIi_AcxCm[maDga@__IsiAuiJmbEyzZagBwvMkSypEkT_~C_cAk_H|Y{fB_P{qC}l@q_C{S_i@yA}dAwj@mkB{^}jCbVi|DzUqoAkjA_`Lku@g_Ly\\\\e_Dud@ilDwh@ufBeh@}hBgT{jAkm@wv@q{@k_G_z@ifAeU{w@kRuaCieAsrEiw@uvAku@{vDez@_kCgCyqAoB}gBwXkw@om@q}AweBizEwaBkhF}oBy`M}hBqsKc|@_iDowAyrJ_B_v@lY}eBgEajByh@skH{`Dkzc@k]_vCeu@yuCyF_uAgBe_Bsa@mxBaDmfCiTasFmMqcJw]sgRsVaeScNggBxdA_tDdw@gxGr@kuAy[w{@qj@_iCi|@orEyd@o`Aaj@yn@knAsvDmn@msJmm@kvOal@o~Cmf@{cGjJazDcp@w_EgxAw~EcnA_}E^y`E}f@swDoPmt@wn@ofAuc@gtAmu@mvAiu@{{@km@qrAgd@}j@ie@_RuoBwr@svBi`BcmB_kB}sBmzBqc@kz@sTihBjGkpA}@gc@eo@kgBeVuPuoA`C_g@uPol@_|@_dA}`BgeAgd@s^}a@_w@isBidAi~AytAyvBihB_fDmvAojB_zIkaL{t@sdAuWirAgZonAohDuzFyaAkbBon@_k@spAi|@}aHgoMi{EqiJw`Di}H{uDuiMc|EytOevAe~DarAqc@inEsaO}~Eo|PsrBizJyAcq@`TqbAzw@atCzLsrAbBehGkFmoAa\\\\}jAc]qqAiCmoBaMajDeSowAsdCyeIy`FmqMsrAigDwi@ir@ch@s~Auz@cvC}vBcvHeSgl@e_@oTq`AcxBkfBsaEwt@u}CizDevJwfA}bDsqA_bBinCgvDamHivUmNo|@}K{MgSbD{wAn^eoCpl@wSsRwqA_jDua@eqEwN{|DpLcgEeq@_kBar@ykBoTslAqxAi_EyW{iB_y@yrBqhCecHcFgwFpFkcCmMi`A}TkuAkBcy@kc@yy@qHyY`p@{dA~|@ihClt@s{Afh@o{AoHa]u_@{MqjAghBik@ocA_NyHaLfSwI{H\"},\"bounds\":{\"southwest\":{\"lat\":\"43.6533096\",\"lng\":\"-79.3834186\"},\"northeast\":{\"lat\":\"45.5024881\",\"lng\":\"-73.5655647\"}}},\"geocoded_waypoint\":[{\"geocoder_status\":\"OK\",\"type\":[\"locality\",\"political\"],\"place_id\":\"ChIJpTvG15DL1IkRd8S0KlBVNTI\"},{\"geocoder_status\":\"OK\",\"type\":[\"locality\",\"political\"],\"place_id\":\"ChIJDbdkHFQayUwR7-8fITgxTmU\"}]}"
  },
  "proxy" : null
}